[{"c":1,"s":"영등포동"},
{"c":2,"s":"영등포동1가"},
{"c":3,"s":"영등포동2가"},
{"c":4,"s":"영등포동3가"},
{"c":5,"s":"영등포동4가"},
{"c":6,"s":"영등포동5가"},
{"c":7,"s":"영등포동6가"},
{"c":8,"s":"영등포동7가"},
{"c":9,"s":"영등포동8가"},
{"c":10,"s":"여의도동"},
{"c":11,"s":"당산동1가"},
{"c":12,"s":"당산동2가"},
{"c":13,"s":"당산동3가"},
{"c":14,"s":"당산동4가"},
{"c":15,"s":"당산동5가"},
{"c":16,"s":"당산동6가"},
{"c":17,"s":"당산동"},
{"c":18,"s":"도림동"},
{"c":19,"s":"문래동1가"},
{"c":20,"s":"문래동2가"},
{"c":21,"s":"문래동3가"},
{"c":22,"s":"문래동4가"},
{"c":23,"s":"문래동5가"},
{"c":24,"s":"문래동6가"},
{"c":25,"s":"양평동1가"},
{"c":26,"s":"양평동2가"},
{"c":27,"s":"양평동3가"},
{"c":28,"s":"양평동4가"},
{"c":29,"s":"양평동5가"},
{"c":30,"s":"양평동6가"},
{"c":31,"s":"양화동"},
{"c":32,"s":"신길동"},
{"c":33,"s":"대림동"},
{"c":34,"s":"양평동"}]