[{"c":1,"s":"후암동"},
{"c":2,"s":"용산동2가"},
{"c":3,"s":"용산동4가"},
{"c":4,"s":"갈월동"},
{"c":5,"s":"남영동"},
{"c":6,"s":"용산동1가"},
{"c":7,"s":"동자동"},
{"c":8,"s":"서계동"},
{"c":9,"s":"청파동1가"},
{"c":10,"s":"청파동2가"},
{"c":11,"s":"청파동3가"},
{"c":12,"s":"원효로1가"},
{"c":13,"s":"원효로2가"},
{"c":14,"s":"신창동"},
{"c":15,"s":"산천동"},
{"c":16,"s":"청암동"},
{"c":17,"s":"원효로3가"},
{"c":18,"s":"원효로4가"},
{"c":19,"s":"효창동"},
{"c":20,"s":"도원동"},
{"c":21,"s":"용문동"},
{"c":22,"s":"문배동"},
{"c":23,"s":"신계동"},
{"c":24,"s":"한강로1가"},
{"c":25,"s":"한강로2가"},
{"c":26,"s":"용산동3가"},
{"c":27,"s":"용산동5가"},
{"c":28,"s":"한강로3가"},
{"c":29,"s":"이촌동"},
{"c":30,"s":"이태원동"},
{"c":31,"s":"한남동"},
{"c":32,"s":"동빙고동"},
{"c":33,"s":"서빙고동"},
{"c":34,"s":"주성동"},
{"c":35,"s":"용산동6가"},
{"c":36,"s":"보광동"}]