[{"c":1,"s":"상왕십리동"},
{"c":2,"s":"하왕십리동"},
{"c":3,"s":"홍익동"},
{"c":4,"s":"도선동"},
{"c":5,"s":"마장동"},
{"c":6,"s":"사근동"},
{"c":7,"s":"행당동"},
{"c":8,"s":"응봉동"},
{"c":9,"s":"금호동1가"},
{"c":10,"s":"금호동2가"},
{"c":11,"s":"금호동3가"},
{"c":12,"s":"금호동4가"},
{"c":13,"s":"옥수동"},
{"c":14,"s":"성수동1가"},
{"c":15,"s":"성수동2가"},
{"c":16,"s":"송정동"},
{"c":17,"s":"용답동"}]