[{"c":1,"s":"북도면 시도리"},
{"c":2,"s":"북도면 신도리"},
{"c":3,"s":"북도면 모도리"},
{"c":4,"s":"북도면 장봉리"},
{"c":5,"s":"백령면 진촌리"},
{"c":6,"s":"백령면 북포리"},
{"c":7,"s":"백령면 가을리"},
{"c":8,"s":"백령면 연화리"},
{"c":9,"s":"백령면 남포리"},
{"c":10,"s":"백령면 대청리"},
{"c":11,"s":"백령면 소청리"},
{"c":12,"s":"덕적면 북리"},
{"c":13,"s":"덕적면 진리"},
{"c":14,"s":"덕적면 서포리"},
{"c":15,"s":"덕적면 소야리"},
{"c":16,"s":"덕적면 울도리"},
{"c":17,"s":"덕적면 백아리"},
{"c":18,"s":"덕적면 문갑리"},
{"c":19,"s":"덕적면 굴업리"},
{"c":20,"s":"영흥면 외리"},
{"c":21,"s":"영흥면 내리"},
{"c":22,"s":"영흥면 선재리"},
{"c":23,"s":"자월면 자월리"},
{"c":24,"s":"자월면 이작리"},
{"c":25,"s":"자월면 승봉리"},
{"c":26,"s":"연평면 연평리"}]