[{"c":1,"s":"수원시 장안구"},
{"c":2,"s":"수원시 권선구"},
{"c":3,"s":"수원시 팔달구"},
{"c":4,"s":"수원시 영통구"},
{"c":5,"s":"성남시 수정구"},
{"c":6,"s":"성남시 중원구"},
{"c":7,"s":"성남시 분당구"},
{"c":8,"s":"의정부시"},
{"c":9,"s":"안양시 만안구"},
{"c":10,"s":"안양시 동안구"},
{"c":11,"s":"부천시"},
{"c":12,"s":"광명시"},
{"c":13,"s":"평택시"},
{"c":15,"s":"동두천시"},
{"c":16,"s":"안산시 상록구"},
{"c":17,"s":"안산시 단원구"},
{"c":18,"s":"고양시 덕양구"},
{"c":19,"s":"고양시 일산동구"},
{"c":20,"s":"고양시 일산서구"},
{"c":21,"s":"과천시"},
{"c":22,"s":"구리시"},
{"c":23,"s":"남양주시"},
{"c":24,"s":"오산시"},
{"c":25,"s":"시흥시"},
{"c":26,"s":"군포시"},
{"c":27,"s":"의왕시"},
{"c":28,"s":"하남시"},
{"c":29,"s":"용인시 처인구"},
{"c":30,"s":"용인시 기흥구"},
{"c":31,"s":"용인시 수지구"},
{"c":32,"s":"파주시"},
{"c":33,"s":"이천시"},
{"c":34,"s":"안성시"},
{"c":35,"s":"김포시"},
{"c":36,"s":"화성시"},
{"c":37,"s":"광주시"},
{"c":38,"s":"양주시"},
{"c":39,"s":"포천시"},
{"c":40,"s":"여주시"},
{"c":41,"s":"연천군"},
{"c":42,"s":"가평군"},
{"c":43,"s":"양평군"}]