[{"c":1,"s":"송내동"},
{"c":2,"s":"지행동"},
{"c":3,"s":"생연동"},
{"c":4,"s":"광암동"},
{"c":5,"s":"걸산동"},
{"c":6,"s":"보산동"},
{"c":7,"s":"동두천동"},
{"c":8,"s":"안흥동"},
{"c":9,"s":"상봉암동"},
{"c":10,"s":"하봉암동"},
{"c":11,"s":"탑동동"},
{"c":12,"s":"상패동"}]