[{"c":1,"s":"호평동"},
{"c":2,"s":"평내동"},
{"c":3,"s":"금곡동"},
{"c":4,"s":"일패동"},
{"c":5,"s":"이패동"},
{"c":6,"s":"삼패동"},
{"c":7,"s":"수석동"},
{"c":8,"s":"지금동"},
{"c":9,"s":"도농동"},
{"c":10,"s":"별내동"},
{"c":11,"s":"다산동"},
{"c":12,"s":"와부읍 덕소리"},
{"c":13,"s":"와부읍 도곡리"},
{"c":14,"s":"와부읍 팔당리"},
{"c":15,"s":"와부읍 월문리"},
{"c":16,"s":"와부읍 율석리"},
{"c":17,"s":"진전읍 장현리"},
{"c":18,"s":"진전읍 내각리"},
{"c":19,"s":"진전읍 내곡리"},
{"c":20,"s":"진전읍 연평리"},
{"c":21,"s":"진전읍 부평리"},
{"c":22,"s":"진전읍 팔야리"},
{"c":23,"s":"진전읍 진벌리"},
{"c":24,"s":"진전읍 금곡리"},
{"c":25,"s":"화도읍 마석우리"},
{"c":26,"s":"화도읍 묵현리"},
{"c":27,"s":"화도읍 가곡리"},
{"c":28,"s":"화도읍 구암리"},
{"c":29,"s":"화도읍 금남리"},
{"c":30,"s":"화도읍 답내리"},
{"c":31,"s":"화도읍 월산리"},
{"c":32,"s":"화도읍 창현리"},
{"c":33,"s":"화도읍 녹촌리"},
{"c":34,"s":"화도읍 차산리"},
{"c":35,"s":"진건읍 사능리"},
{"c":36,"s":"진건읍 배양리"},
{"c":37,"s":"진건읍 진관리"},
{"c":38,"s":"진건읍 신월리"},
{"c":39,"s":"진건읍 용정리"},
{"c":40,"s":"진건읍 송능리"},
{"c":41,"s":"오남읍 양지리"},
{"c":42,"s":"오남읍 팔현리"},
{"c":43,"s":"오남읍 오남리"},
{"c":44,"s":"별내면 청학리"},
{"c":45,"s":"별내면 용암리"},
{"c":46,"s":"별내면 광전리"},
{"c":47,"s":"수동면 운수리"},
{"c":48,"s":"수동면 지둔리"},
{"c":49,"s":"수동면 수산리"},
{"c":50,"s":"수동면 내방리"},
{"c":51,"s":"수동면 외방리"},
{"c":52,"s":"수동면 입석리"},
{"c":53,"s":"수동면 송천리"},
{"c":54,"s":"조안면 능내리"},
{"c":55,"s":"조안면 조안리"},
{"c":56,"s":"조안면 진중리"},
{"c":57,"s":"조안면 송촌리"},
{"c":58,"s":"조안면 삼봉리"},
{"c":59,"s":"조안면 시우리"},
{"c":60,"s":"퇴계원면 퇴계원리"}]