[{"c":1,"s":"고천동"},
{"c":2,"s":"이동"},
{"c":3,"s":"삼동"},
{"c":4,"s":"왕곡동"},
{"c":5,"s":"오전동"},
{"c":6,"s":"학의동"},
{"c":7,"s":"내손동"},
{"c":8,"s":"청계동"},
{"c":9,"s":"포일동"},
{"c":10,"s":"월암동"},
{"c":11,"s":"초평동"}]