[{"c":1,"s":"진안동"},
{"c":2,"s":"병점동"},
{"c":3,"s":"능동"},
{"c":4,"s":"기산동"},
{"c":5,"s":"반월동"},
{"c":6,"s":"반정동"},
{"c":7,"s":"황계동"},
{"c":8,"s":"배양동"},
{"c":9,"s":"기안동"},
{"c":10,"s":"송산동"},
{"c":11,"s":"안녕동"},
{"c":12,"s":"반송동"},
{"c":13,"s":"석우동"},
{"c":14,"s":"오산동"},
{"c":15,"s":"청계동"},
{"c":16,"s":"영천동"},
{"c":17,"s":"봉담읍 상리"},
{"c":18,"s":"봉담읍 내리"},
{"c":19,"s":"봉담읍 수영리"},
{"c":20,"s":"봉담읍 동화리"},
{"c":21,"s":"봉담읍 와우리"},
{"c":22,"s":"봉담읍 수기리"},
{"c":23,"s":"봉담읍 분천리"},
{"c":24,"s":"봉담읍 왕림리"},
{"c":25,"s":"봉담읍 세곡리"},
{"c":26,"s":"봉담읍 당하리"},
{"c":27,"s":"봉담읍 마하리"},
{"c":28,"s":"봉담읍 유리"},
{"c":29,"s":"봉담읍 덕리"},
{"c":30,"s":"봉담읍 덕우리"},
{"c":31,"s":"봉담읍 하가등리"},
{"c":32,"s":"봉담읍 상기리"},
{"c":33,"s":"우정읍 원안리"},
{"c":34,"s":"우정읍 호곡리"},
{"c":35,"s":"우정읍 운평리"},
{"c":36,"s":"우정읍 한각리"},
{"c":37,"s":"우정읍 멱우리"},
{"c":38,"s":"우정읍 화수리"},
{"c":39,"s":"우정읍 주곡리"},
{"c":40,"s":"우정읍 이화리"},
{"c":41,"s":"우정읍 석천리"},
{"c":42,"s":"우정읍 매향리"},
{"c":43,"s":"우정읍 화산리"},
{"c":44,"s":"우정읍 조암리"},
{"c":45,"s":"우정읍 국화리"},
{"c":46,"s":"향남읍 평리"},
{"c":47,"s":"향남읍 발안리"},
{"c":48,"s":"향남읍 제암리"},
{"c":49,"s":"향남읍 상신리"},
{"c":50,"s":"향남읍 구문천리"},
{"c":51,"s":"향남읍 하길리"},
{"c":52,"s":"향남읍 화리현리"},
{"c":53,"s":"향남읍 상두리"},
{"c":54,"s":"향남읍 백토리"},
{"c":55,"s":"향남읍 길성리"},
{"c":56,"s":"향남읍 요리"},
{"c":57,"s":"향남읍 수직리"},
{"c":58,"s":"향남읍 갈천리"},
{"c":59,"s":"향남읍 증거리"},
{"c":60,"s":"향남읍 송곡리"},
{"c":61,"s":"향남읍 동오리"},
{"c":62,"s":"향남읍 관리"},
{"c":63,"s":"향남읍 도이리"},
{"c":64,"s":"향남읍 행정리"},
{"c":65,"s":"향남읍 방축리"},
{"c":66,"s":"향남읍 장짐리"},
{"c":67,"s":"남양읍 남양리"},
{"c":68,"s":"남양읍 신남리"},
{"c":69,"s":"남양읍 장덕리"},
{"c":70,"s":"남양읍 안석리"},
{"c":71,"s":"남양읍 활초리"},
{"c":72,"s":"남양읍 온석리"},
{"c":73,"s":"남양읍 무송리"},
{"c":74,"s":"남양읍 북양리"},
{"c":75,"s":"남양읍 송림리"},
{"c":76,"s":"남양읍 수화리"},
{"c":77,"s":"남양읍 장전리"},
{"c":78,"s":"남양읍 신외리"},
{"c":79,"s":"남양읍 문호리"},
{"c":80,"s":"남양읍 시리"},
{"c":81,"s":"남양읍 원천리"},
{"c":82,"s":"매송면 천천리"},
{"c":83,"s":"매송면 원평리"},
{"c":84,"s":"매송면 어천리"},
{"c":85,"s":"매송면 숙곡리"},
{"c":86,"s":"매송면 야목리"},
{"c":87,"s":"매송면 송라리"},
{"c":88,"s":"매송면 원리"},
{"c":89,"s":"비봉면 양노리"},
{"c":90,"s":"비봉면 남전리"},
{"c":91,"s":"비봉면 유포리"},
{"c":92,"s":"비봉면 삼화리"},
{"c":93,"s":"비봉면 구포리"},
{"c":94,"s":"비봉면 쌍학리"},
{"c":95,"s":"비봉면 청요리"},
{"c":96,"s":"비봉면 자안리"},
{"c":97,"s":"마도면 석교리"},
{"c":98,"s":"마도면 두곡리"},
{"c":99,"s":"마도면 송정리"},
{"c":100,"s":"마도면 쌍송리"},
{"c":101,"s":"마도면 청원리"},
{"c":102,"s":"마도면 슬항리"},
{"c":103,"s":"마도면 해문리"},
{"c":104,"s":"마도면 백곡리"},
{"c":105,"s":"마도면 금당리"},
{"c":106,"s":"마도면 고모리"},
{"c":107,"s":"송산면 사강리"},
{"c":108,"s":"송산면 봉가리"},
{"c":109,"s":"송산면 삼존리"},
{"c":110,"s":"송산면 용포리"},
{"c":111,"s":"송산면 고정리"},
{"c":112,"s":"송산면 쌍정리"},
{"c":113,"s":"송산면 천등리"},
{"c":114,"s":"송산면 신천리"},
{"c":115,"s":"송산면 독지리"},
{"c":116,"s":"송산면 마산리"},
{"c":117,"s":"송산면 고포리"},
{"c":118,"s":"송산면 지화리"},
{"c":119,"s":"송산면 중송리"},
{"c":120,"s":"송산면 육일리"},
{"c":121,"s":"송산면 칠곡리"},
{"c":122,"s":"서신면 전곡리"},
{"c":123,"s":"서신면 상안리"},
{"c":124,"s":"서신면 광평리"},
{"c":125,"s":"서신면 장외리"},
{"c":126,"s":"서신면 송교리"},
{"c":127,"s":"서신면 제부리"},
{"c":128,"s":"서신면 홍법리"},
{"c":129,"s":"서신면 사곳리"},
{"c":130,"s":"서신면 매화리"},
{"c":131,"s":"서신면 용두리"},
{"c":132,"s":"서신면 궁평리"},
{"c":133,"s":"서신면 백미리"},
{"c":134,"s":"팔탄면 하저리"},
{"c":135,"s":"팔탄면 창곡리"},
{"c":136,"s":"팔탄면 기천리"},
{"c":137,"s":"팔탄면 가재리"},
{"c":138,"s":"팔탄면 구장리"},
{"c":139,"s":"팔탄면 율암리"},
{"c":140,"s":"팔탄면 노하리"},
{"c":141,"s":"팔탄면 덕천리"},
{"c":142,"s":"팔탄면 지월리"},
{"c":143,"s":"팔탄면 덕우리"},
{"c":144,"s":"팔탄면 서근리"},
{"c":145,"s":"팔탄면 월문리"},
{"c":146,"s":"팔탄면 화당리"},
{"c":147,"s":"팔탄면 고주리"},
{"c":148,"s":"팔탄면 매곡리"},
{"c":149,"s":"팔탄면 해창리"},
{"c":150,"s":"장안면 어은리"},
{"c":151,"s":"장안면 석포리"},
{"c":152,"s":"장안면 수촌리"},
{"c":153,"s":"장안면 독정리"},
{"c":154,"s":"장안면 장안리"},
{"c":155,"s":"장안면 덕다리"},
{"c":156,"s":"장안면 사랑리"},
{"c":157,"s":"장안면 금의리"},
{"c":158,"s":"장안면 사곡리"},
{"c":159,"s":"장안면 노진리"},
{"c":160,"s":"양감면 신왕리"},
{"c":161,"s":"양감면 사창리"},
{"c":162,"s":"양감면 정문리"},
{"c":163,"s":"양감면 송산리"},
{"c":164,"s":"양감면 용소리"},
{"c":165,"s":"양감면 요당리"},
{"c":166,"s":"양감면 대양리"},
{"c":167,"s":"정남면 발산리"},
{"c":168,"s":"정남면 괘랑리"},
{"c":169,"s":"정남면 보통리"},
{"c":170,"s":"정남면 관항리"},
{"c":171,"s":"정남면 오일리"},
{"c":172,"s":"정남면 백리"},
{"c":173,"s":"정남면 문학리"},
{"c":174,"s":"정남면 신리"},
{"c":175,"s":"정남면 계향리"},
{"c":176,"s":"정남면 귀래리"},
{"c":177,"s":"정남면 제기리"},
{"c":178,"s":"정남면 덕절리"},
{"c":179,"s":"정남면 음양리"},
{"c":180,"s":"정남면 망월리"},
{"c":181,"s":"정남면 수면리"},
{"c":182,"s":"정남면 내리"},
{"c":183,"s":"정남면 금복리"},
{"c":184,"s":"정남면 고지리"},
{"c":185,"s":"정남면 용수리"},
{"c":186,"s":"동탄면 중리"},
{"c":187,"s":"동탄면 신리"},
{"c":188,"s":"동탄면 목리"},
{"c":189,"s":"동탄면 산척리"},
{"c":190,"s":"동탄면 장지리"},
{"c":191,"s":"동탄면 송리"},
{"c":192,"s":"동탄면 방교리"},
{"c":193,"s":"동탄면 금곡리"}]