[{"c":1,"s":"대인동"},
{"c":2,"s":"금남로5가"},
{"c":3,"s":"충장로5가"},
{"c":4,"s":"수기동"},
{"c":5,"s":"대의동"},
{"c":6,"s":"궁동"},
{"c":7,"s":"장동"},
{"c":8,"s":"동명동"},
{"c":9,"s":"계림동"},
{"c":10,"s":"산수동"},
{"c":11,"s":"지산동"},
{"c":12,"s":"남동"},
{"c":13,"s":"광산동"},
{"c":14,"s":"금동"},
{"c":15,"s":"호남동"},
{"c":16,"s":"불로동"},
{"c":17,"s":"황금동"},
{"c":18,"s":"서석동"},
{"c":19,"s":"소태동"},
{"c":20,"s":"용연동"},
{"c":21,"s":"운림동"},
{"c":22,"s":"학동"},
{"c":23,"s":"월남동"},
{"c":24,"s":"선교동"},
{"c":25,"s":"내남동"},
{"c":26,"s":"용산동"},
{"c":27,"s":"충장로1가"},
{"c":28,"s":"충장로2가"},
{"c":29,"s":"충장로3가"},
{"c":30,"s":"충장로4가"},
{"c":31,"s":"금남로1가"},
{"c":32,"s":"금남로2가"},
{"c":33,"s":"금남로3가"},
{"c":34,"s":"금남로4가"}]