[{"c":1,"s":"천안시 동남구"},
{"c":2,"s":"천안시 서북구"},
{"c":3,"s":"공주시"},
{"c":4,"s":"보령시"},
{"c":5,"s":"아산시"},
{"c":6,"s":"서산시"},
{"c":7,"s":"논산시"},
{"c":8,"s":"계룡시"},
{"c":9,"s":"당진시"},
{"c":10,"s":"금산군"},
{"c":11,"s":"부여군"},
{"c":12,"s":"서천군"},
{"c":13,"s":"청양군"},
{"c":14,"s":"홍성군"},
{"c":15,"s":"예산군"},
{"c":16,"s":"태안군"}]