[{"c":1,"s":"원리"},
{"c":2,"s":"상리"},
{"c":3,"s":"평리"},
{"c":4,"s":"교리"},
{"c":5,"s":"정리"},
{"c":6,"s":"명리"},
{"c":7,"s":"남리"},
{"c":8,"s":"침산리"},
{"c":9,"s":"신흥리"},
{"c":10,"s":"죽림리"},
{"c":11,"s":"번암리"},
{"c":12,"s":"신안리"},
{"c":13,"s":"봉산리"},
{"c":14,"s":"서창리"}]