[{"c":1,"s":"용포리"},
{"c":2,"s":"발산리"},
{"c":3,"s":"감성리"},
{"c":4,"s":"두만리"},
{"c":5,"s":"용담리"},
{"c":6,"s":"축산리"},
{"c":7,"s":"금천리"},
{"c":8,"s":"영치리"},
{"c":9,"s":"남곡리"},
{"c":10,"s":"황용리"},
{"c":11,"s":"영대리"},
{"c":12,"s":"달전리"},
{"c":13,"s":"박산리"},
{"c":14,"s":"대박리"},
{"c":15,"s":"부용리"},
{"c":16,"s":"장재리"},
{"c":17,"s":"호탄리"},
{"c":18,"s":"신촌리"},
{"c":19,"s":"도암리"},
{"c":20,"s":"성덕리"},
{"c":21,"s":"영곡리"},
{"c":22,"s":"성강리"},
{"c":23,"s":"봉암리"},
{"c":24,"s":"국곡리"},
{"c":25,"s":"원봉리"},
{"c":26,"s":"도남리"},
{"c":27,"s":"집현리"}]