[{"c":1,"s":"노장리"},
{"c":2,"s":"봉대리"},
{"c":3,"s":"청송리"},
{"c":4,"s":"석곡리"},
{"c":5,"s":"보덕리"},
{"c":6,"s":"송곡리"},
{"c":7,"s":"송정리"},
{"c":8,"s":"청람리"},
{"c":9,"s":"미곡리"},
{"c":10,"s":"송성리"},
{"c":11,"s":"심중리"}]