[{"c":1,"s":"청주시 상당구"},
{"c":2,"s":"청주시 서원구"},
{"c":3,"s":"청주시 흥덕구"},
{"c":4,"s":"청주시 청원구"},
{"c":5,"s":"충주시"},
{"c":6,"s":"제천시"},
{"c":7,"s":"보은군"},
{"c":8,"s":"옥천군"},
{"c":9,"s":"영동군"},
{"c":10,"s":"증평군"},
{"c":11,"s":"진천군"},
{"c":12,"s":"괴산군"},
{"c":13,"s":"음성군"},
{"c":14,"s":"단양군"}]