[{"c":1,"s":"음성읍 읍내리"},
{"c":2,"s":"음성읍 평곡리"},
{"c":3,"s":"음성읍 석인리"},
{"c":4,"s":"음성읍 한벌리"},
{"c":5,"s":"음성읍 용산리"},
{"c":6,"s":"음성읍 사정리"},
{"c":7,"s":"음성읍 감우리"},
{"c":8,"s":"음성읍 소여리"},
{"c":9,"s":"음성읍 신천리"},
{"c":10,"s":"음성읍 초천리"},
{"c":11,"s":"음성읍 동음리"},
{"c":12,"s":"음성읍 삼생리"},
{"c":13,"s":"금왕읍 무극리"},
{"c":14,"s":"금왕읍 금석리"},
{"c":15,"s":"금왕읍 정생리"},
{"c":16,"s":"금왕읍 육령리"},
{"c":17,"s":"금왕읍 백야리"},
{"c":18,"s":"금왕읍 용계리"},
{"c":19,"s":"금왕읍 봉곡리"},
{"c":20,"s":"금왕읍 유촌리"},
{"c":21,"s":"금왕읍 신평리"},
{"c":22,"s":"금왕읍 본대리"},
{"c":23,"s":"금왕읍 내곡리"},
{"c":24,"s":"금왕읍 사창리"},
{"c":25,"s":"금왕읍 구계리"},
{"c":26,"s":"금왕읍 호산리"},
{"c":27,"s":"금왕읍 쌍봉리"},
{"c":28,"s":"금왕읍 유포리"},
{"c":29,"s":"금왕읍 오선리"},
{"c":30,"s":"금왕읍 도청리"},
{"c":31,"s":"금왕읍 내송리"},
{"c":32,"s":"금왕읍 각회리"},
{"c":33,"s":"금왕읍 삼봉리"},
{"c":34,"s":"금왕읍 행제리"},
{"c":35,"s":"소이면 대장리"},
{"c":36,"s":"소이면 후미리"},
{"c":37,"s":"소이면 중동리"},
{"c":38,"s":"소이면 문등리"},
{"c":39,"s":"소이면 갑산리"},
{"c":40,"s":"소이면 봉전리"},
{"c":41,"s":"소이면 금고리"},
{"c":42,"s":"소이면 충도리"},
{"c":43,"s":"소이면 비산리"},
{"c":44,"s":"원남면 보천리"},
{"c":45,"s":"원남면 보룡리"},
{"c":46,"s":"원남면 마송리"},
{"c":47,"s":"원남면 상당리"},
{"c":48,"s":"원남면 하당리"},
{"c":49,"s":"원남면 상노리"},
{"c":50,"s":"원남면 하노리"},
{"c":51,"s":"원남면 구안리"},
{"c":52,"s":"원남면 주봉리"},
{"c":53,"s":"원남면 문암리"},
{"c":54,"s":"원남면 조촌리"},
{"c":55,"s":"원남면 삼용리"},
{"c":56,"s":"원남면 덕정리"},
{"c":57,"s":"맹동면 쌍정리"},
{"c":58,"s":"맹동면 인곡리"},
{"c":59,"s":"맹동면 마산리"},
{"c":60,"s":"맹동면 봉현리"},
{"c":61,"s":"맹동면 용촌리"},
{"c":62,"s":"맹동면 신돈리"},
{"c":63,"s":"맹동면 본성리"},
{"c":64,"s":"맹동면 두성리"},
{"c":65,"s":"맹동면 통동리"},
{"c":66,"s":"맹동면 군자리"},
{"c":67,"s":"맹동면 동성리"},
{"c":68,"s":"대소면 오산리"},
{"c":69,"s":"대소면 태생리"},
{"c":70,"s":"대소면 소석리"},
{"c":71,"s":"대소면 성본리"},
{"c":72,"s":"대소면 부윤리"},
{"c":73,"s":"대소면 수태리"},
{"c":74,"s":"대소면 삼정리"},
{"c":75,"s":"대소면 미곡리"},
{"c":76,"s":"대소면 삼호리"},
{"c":77,"s":"대소면 내산리"},
{"c":78,"s":"대소면 오류리"},
{"c":79,"s":"대소면 대풍리"},
{"c":80,"s":"삼성면 덕정리"},
{"c":81,"s":"삼성면 양덕리"},
{"c":82,"s":"삼성면 대사리"},
{"c":83,"s":"삼성면 용성리"},
{"c":84,"s":"삼성면 상곡리"},
{"c":85,"s":"삼성면 청용리"},
{"c":86,"s":"삼성면 천평리"},
{"c":87,"s":"삼성면 선정리"},
{"c":88,"s":"삼성면 대정리"},
{"c":89,"s":"삼성면 능산리"},
{"c":90,"s":"삼성면 용대리"},
{"c":91,"s":"삼성면 대야리"},
{"c":92,"s":"생극면 신양리"},
{"c":93,"s":"생극면 병암리"},
{"c":94,"s":"생극면 도신리"},
{"c":95,"s":"생극면 관성리"},
{"c":96,"s":"생극면 팔성리"},
{"c":97,"s":"생극면 송곡리"},
{"c":98,"s":"생극면 임곡리"},
{"c":99,"s":"생극면 방축리"},
{"c":100,"s":"생극면 차평리"},
{"c":101,"s":"생극면 차곡리"},
{"c":102,"s":"생극면 오생리"},
{"c":103,"s":"생극면 생리"},
{"c":104,"s":"감곡면 오향리"},
{"c":105,"s":"감곡면 주천리"},
{"c":106,"s":"감곡면 원당리"},
{"c":107,"s":"감곡면 상평리"},
{"c":108,"s":"감곡면 월정리"},
{"c":109,"s":"감곡면 영산리"},
{"c":110,"s":"감곡면 사곡리"},
{"c":111,"s":"감곡면 문촌리"},
{"c":112,"s":"감곡면 오궁리"},
{"c":113,"s":"감곡면 상우리"},
{"c":114,"s":"감곡면 왕장리"},
{"c":115,"s":"감곡면 단평리"}]