[{"c":1,"s":"단양읍 현천리"},
{"c":2,"s":"단양읍 덕상리"},
{"c":3,"s":"단양읍 심곡리"},
{"c":4,"s":"단양읍 증도리"},
{"c":5,"s":"단양읍 별곡리"},
{"c":6,"s":"단양읍 도전리"},
{"c":7,"s":"단양읍 상진리"},
{"c":8,"s":"단양읍 도담리"},
{"c":9,"s":"단양읍 후곡리"},
{"c":10,"s":"단양읍 장현리"},
{"c":11,"s":"단양읍 노동리"},
{"c":12,"s":"단양읍 마조리"},
{"c":13,"s":"단양읍 수촌리"},
{"c":14,"s":"단양읍 천동리"},
{"c":15,"s":"단양읍 금곡리"},
{"c":16,"s":"단양읍 기촌리"},
{"c":17,"s":"단양읍 고수리"},
{"c":18,"s":"매포읍 매포리"},
{"c":19,"s":"매포읍 우덕리"},
{"c":20,"s":"매포읍 어의곡리"},
{"c":21,"s":"매포읍 하괴리"},
{"c":22,"s":"매포읍 상괴리"},
{"c":23,"s":"매포읍 안동리"},
{"c":24,"s":"매포읍 평동리"},
{"c":25,"s":"매포읍 도곡리"},
{"c":26,"s":"매포읍 하시리"},
{"c":27,"s":"매포읍 상시리"},
{"c":28,"s":"매포읍 영천리"},
{"c":29,"s":"매포읍 가평리"},
{"c":30,"s":"매포읍 삼곡리"},
{"c":31,"s":"매포읍 고양리"},
{"c":32,"s":"매포읍 김산리"},
{"c":33,"s":"대강면 장림리"},
{"c":34,"s":"대강면 당동리"},
{"c":35,"s":"대강면 용부원리"},
{"c":36,"s":"대강면 두음리"},
{"c":37,"s":"대강면 괴평리"},
{"c":38,"s":"대강면 사인암리"},
{"c":39,"s":"대강면 직티리"},
{"c":40,"s":"대강면 황정리"},
{"c":41,"s":"대강면 성금리"},
{"c":42,"s":"대강면 미노리"},
{"c":43,"s":"대강면 덕촌리"},
{"c":44,"s":"대강면 장정리"},
{"c":45,"s":"대강면 사동리"},
{"c":46,"s":"대강면 남천리"},
{"c":47,"s":"대강면 남조리"},
{"c":48,"s":"대강면 무수천리"},
{"c":49,"s":"대강면 신구리"},
{"c":50,"s":"대강면 올산리"},
{"c":51,"s":"대강면 방곡리"},
{"c":52,"s":"가곡면 사평리"},
{"c":53,"s":"가곡면 가대리"},
{"c":54,"s":"가곡면 여천리"},
{"c":55,"s":"가곡면 덕천리"},
{"c":56,"s":"가곡면 대대리"},
{"c":57,"s":"가곡면 어의곡리"},
{"c":58,"s":"가곡면 보발리"},
{"c":59,"s":"가곡면 향산리"},
{"c":60,"s":"영춘면 상리"},
{"c":61,"s":"영춘면 하리"},
{"c":62,"s":"영춘면 남천리"},
{"c":63,"s":"영춘면 백자리"},
{"c":64,"s":"영춘면 의풍리"},
{"c":65,"s":"영춘면 동대리"},
{"c":66,"s":"영춘면 용진리"},
{"c":67,"s":"영춘면 오사리"},
{"c":68,"s":"영춘면 유암리"},
{"c":69,"s":"영춘면 사이곡리"},
{"c":70,"s":"영춘면 별방리"},
{"c":71,"s":"영춘면 만종리"},
{"c":72,"s":"영춘면 장발리"},
{"c":73,"s":"영춘면 사지원리"},
{"c":74,"s":"어상천면 임현리"},
{"c":75,"s":"어상천면 연곡리"},
{"c":76,"s":"어상천면 석교리"},
{"c":77,"s":"어상천면 대전리"},
{"c":78,"s":"어상천면 덕문곡리"},
{"c":79,"s":"어상천면 방북리"},
{"c":80,"s":"어상천면 심곡리"},
{"c":81,"s":"어상천면 율곡리"},
{"c":82,"s":"적성면 하진리"},
{"c":83,"s":"적성면 현곡리"},
{"c":84,"s":"적성면 하리"},
{"c":85,"s":"적성면 성곡리"},
{"c":86,"s":"적성면 상리"},
{"c":87,"s":"적성면 애곡리"},
{"c":88,"s":"적성면 기동리"},
{"c":89,"s":"적성면 각기리"},
{"c":90,"s":"적성면 소야리"},
{"c":91,"s":"적성면 대가리"},
{"c":92,"s":"적성면 파랑리"},
{"c":93,"s":"적성면 하원곡리"},
{"c":94,"s":"적성면 상원곡리"},
{"c":95,"s":"단성면 북상리"},
{"c":96,"s":"단성면 북하리"},
{"c":97,"s":"단성면 상방리"},
{"c":98,"s":"단성면 중방리"},
{"c":99,"s":"단성면 하방리"},
{"c":100,"s":"단성면 외중방리"},
{"c":101,"s":"단성면 장회리"},
{"c":102,"s":"단성면 두항리"},
{"c":103,"s":"단성면 고평리"},
{"c":104,"s":"단성면 양당리"},
{"c":105,"s":"단성면 벌천리"},
{"c":106,"s":"단성면 회산리"},
{"c":107,"s":"단성면 가산리"},
{"c":108,"s":"단성면 대잠리"}]