[{"c":1,"s":"운천동"},
{"c":2,"s":"신봉동"},
{"c":3,"s":"가경동"},
{"c":4,"s":"복대동"},
{"c":5,"s":"봉명동"},
{"c":6,"s":"송정동"},
{"c":7,"s":"강서동"},
{"c":8,"s":"석곡동"},
{"c":9,"s":"휴암동"},
{"c":10,"s":"신전동"},
{"c":11,"s":"현암동"},
{"c":12,"s":"동막동"},
{"c":13,"s":"수의동"},
{"c":14,"s":"지동동"},
{"c":15,"s":"서촌동"},
{"c":16,"s":"신성동"},
{"c":17,"s":"평동"},
{"c":18,"s":"신대동"},
{"c":19,"s":"남촌동"},
{"c":20,"s":"내곡동"},
{"c":21,"s":"상신동"},
{"c":22,"s":"원평동"},
{"c":23,"s":"문암동"},
{"c":24,"s":"송절동"},
{"c":25,"s":"화계동"},
{"c":26,"s":"외북동"},
{"c":27,"s":"향정동"},
{"c":28,"s":"비하동"},
{"c":29,"s":"석소동"},
{"c":30,"s":"정봉동"},
{"c":31,"s":"신촌동"},
{"c":32,"s":"오송읍 호계리"},
{"c":33,"s":"오송읍 상정리"},
{"c":34,"s":"오송읍 공북리"},
{"c":35,"s":"오송읍 쌍청리"},
{"c":36,"s":"오송읍 만수리"},
{"c":37,"s":"오송읍 연제리"},
{"c":38,"s":"오송읍 궁평리"},
{"c":39,"s":"오송읍 오송리"},
{"c":40,"s":"오송읍 동평리"},
{"c":41,"s":"오송읍 서평리"},
{"c":42,"s":"오송읍 봉산리"},
{"c":43,"s":"오송읍 정중리"},
{"c":44,"s":"오송읍 상봉리"},
{"c":45,"s":"강내면 연정리"},
{"c":46,"s":"강내면 궁현리"},
{"c":47,"s":"강내면 저산리"},
{"c":48,"s":"강내면 당곡리"},
{"c":49,"s":"강내면 산단리"},
{"c":50,"s":"강내면 다락리"},
{"c":51,"s":"강내면 태성리"},
{"c":52,"s":"강내면 사곡리"},
{"c":53,"s":"강내면 황탄리"},
{"c":54,"s":"강내면 월탄리"},
{"c":55,"s":"강내면 탑연리"},
{"c":56,"s":"강내면 석화리"},
{"c":57,"s":"강내면 사인리"},
{"c":58,"s":"강내면 월곡리"},
{"c":59,"s":"강내면 학천리"},
{"c":60,"s":"옥산면 오산리"},
{"c":61,"s":"옥산면 덕촌리"},
{"c":62,"s":"옥산면 신촌리"},
{"c":63,"s":"옥산면 환희리"},
{"c":64,"s":"옥산면 가락리"},
{"c":65,"s":"옥산면 동림리"},
{"c":66,"s":"옥산면 금계리"},
{"c":67,"s":"옥산면 장동리"},
{"c":68,"s":"옥산면 사정리"},
{"c":69,"s":"옥산면 수락리"},
{"c":70,"s":"옥산면 장남리"},
{"c":71,"s":"옥산면 호죽리"},
{"c":72,"s":"옥산면 남촌리"},
{"c":73,"s":"옥산면 소로리"},
{"c":74,"s":"옥산면 국사리"}]