[{"c":1,"s":"옥천읍 죽향리"},
{"c":2,"s":"옥천읍 문정리"},
{"c":3,"s":"옥천읍 상계리"},
{"c":4,"s":"옥천읍 하계리"},
{"c":5,"s":"옥천읍 교동리"},
{"c":6,"s":"옥천읍 동안리"},
{"c":7,"s":"옥천읍 수북리"},
{"c":8,"s":"옥천읍 매화리"},
{"c":9,"s":"옥천읍 구일리"},
{"c":10,"s":"옥천읍 서대리"},
{"c":11,"s":"옥천읍 가풍리"},
{"c":12,"s":"옥천읍 삼청리"},
{"c":13,"s":"옥천읍 대천리"},
{"c":14,"s":"옥천읍 마암리"},
{"c":15,"s":"옥천읍 양수리"},
{"c":16,"s":"옥천읍 금구리"},
{"c":17,"s":"옥천읍 장야리"},
{"c":18,"s":"옥천읍 삼양리"},
{"c":19,"s":"옥천읍 서정리"},
{"c":20,"s":"옥천읍 옥각리"},
{"c":21,"s":"옥천읍 오대리"},
{"c":22,"s":"동이면 평산리"},
{"c":23,"s":"동이면 세산리"},
{"c":24,"s":"동이면 적하리"},
{"c":25,"s":"동이면 금암리"},
{"c":26,"s":"동이면 조령리"},
{"c":27,"s":"동이면 청마리"},
{"c":28,"s":"동이면 지양리"},
{"c":29,"s":"동이면 석탄리"},
{"c":30,"s":"동이면 남곡리"},
{"c":31,"s":"동이면 우산리"},
{"c":32,"s":"안남면 연주리"},
{"c":33,"s":"안남면 종미리"},
{"c":34,"s":"안남면 지수리"},
{"c":35,"s":"안남면 도덕리"},
{"c":36,"s":"안남면 청정리"},
{"c":37,"s":"안남면 화학리"},
{"c":38,"s":"안남면 도농리"},
{"c":39,"s":"안내면 현리"},
{"c":40,"s":"안내면 정방리"},
{"c":41,"s":"안내면 도이리"},
{"c":42,"s":"안내면 동대리"},
{"c":43,"s":"안내면 서대리"},
{"c":44,"s":"안내면 오덕리"},
{"c":45,"s":"안내면 인포리"},
{"c":46,"s":"안내면 장계리"},
{"c":47,"s":"안내면 방하목리"},
{"c":48,"s":"안내면 도율리"},
{"c":49,"s":"안내면 월외리"},
{"c":50,"s":"안내면 용촌리"},
{"c":51,"s":"안내면 답양리"},
{"c":52,"s":"청성면 산계리"},
{"c":53,"s":"청성면 거포리"},
{"c":54,"s":"청성면 장수리"},
{"c":55,"s":"청성면 궁촌리"},
{"c":56,"s":"청성면 소서리"},
{"c":57,"s":"청성면 삼남리"},
{"c":58,"s":"청성면 조천리"},
{"c":59,"s":"청성면 묘금리"},
{"c":60,"s":"청성면 고당리"},
{"c":61,"s":"청성면 합금리"},
{"c":62,"s":"청성면 양저리"},
{"c":63,"s":"청성면 구음리"},
{"c":64,"s":"청성면 대안리"},
{"c":65,"s":"청성면 도장리"},
{"c":66,"s":"청성면 능월리"},
{"c":67,"s":"청성면 화성리"},
{"c":68,"s":"청성면 장연리"},
{"c":69,"s":"청산면 지전리"},
{"c":70,"s":"청산면 백운리"},
{"c":71,"s":"청산면 교평리"},
{"c":72,"s":"청산면 하서리"},
{"c":73,"s":"청산면 신매리"},
{"c":74,"s":"청산면 대덕리"},
{"c":75,"s":"청산면 장위리"},
{"c":76,"s":"청산면 한곡리"},
{"c":77,"s":"청산면 인정리"},
{"c":78,"s":"청산면 판수리"},
{"c":79,"s":"청산면 효목리"},
{"c":80,"s":"청산면 의지리"},
{"c":81,"s":"청산면 예곡리"},
{"c":82,"s":"청산면 삼방리"},
{"c":83,"s":"청산면 명티리"},
{"c":84,"s":"청산면 법화리"},
{"c":85,"s":"청산면 대성리"},
{"c":86,"s":"청산면 만월리"},
{"c":87,"s":"이원면 건진리"},
{"c":88,"s":"이원면 장찬리"},
{"c":89,"s":"이원면 강청리"},
{"c":90,"s":"이원면 윤정리"},
{"c":91,"s":"이원면 의평리"},
{"c":92,"s":"이원면 개심리"},
{"c":93,"s":"이원면 평계리"},
{"c":94,"s":"이원면 수묵리"},
{"c":95,"s":"이원면 지정리"},
{"c":96,"s":"이원면 미동리"},
{"c":97,"s":"이원면 이원리"},
{"c":98,"s":"이원면 원동리"},
{"c":99,"s":"이원면 백지리"},
{"c":100,"s":"이원면 지탄리"},
{"c":101,"s":"이원면 용방리"},
{"c":102,"s":"군서면 동평리"},
{"c":103,"s":"군서면 금산리"},
{"c":104,"s":"군서면 사정리"},
{"c":105,"s":"군서면 상지리"},
{"c":106,"s":"군서면 은행리"},
{"c":107,"s":"군서면 사양리"},
{"c":108,"s":"군서면 상중리"},
{"c":109,"s":"군서면 하동리"},
{"c":110,"s":"군서면 오동리"},
{"c":111,"s":"군서면 월전리"},
{"c":112,"s":"군북면 이백리"},
{"c":113,"s":"군북면 자모리"},
{"c":114,"s":"군북면 증약리"},
{"c":115,"s":"군북면 항곡리"},
{"c":116,"s":"군북면 대정리"},
{"c":117,"s":"군북면 환평리"},
{"c":118,"s":"군북면 지오리"},
{"c":119,"s":"군북면 추소리"},
{"c":120,"s":"군북면 이평리"},
{"c":121,"s":"군북면 소정리"},
{"c":122,"s":"군북면 석호리"},
{"c":123,"s":"군북면 용호리"},
{"c":124,"s":"군북면 막지리"},
{"c":125,"s":"군북면 국원리"}]