[{"c":1,"s":"동인동1가"},
{"c":2,"s":"동인동2가"},
{"c":3,"s":"동인동3가"},
{"c":4,"s":"동인동4가"},
{"c":5,"s":"삼덕동1가"},
{"c":6,"s":"삼덕동2가"},
{"c":7,"s":"삼덕동3가"},
{"c":8,"s":"봉산동"},
{"c":9,"s":"장관동"},
{"c":10,"s":"상서동"},
{"c":11,"s":"수동"},
{"c":12,"s":"덕산동"},
{"c":13,"s":"종로1가"},
{"c":14,"s":"종로2가"},
{"c":15,"s":"사일동"},
{"c":16,"s":"동일동"},
{"c":17,"s":"남일동"},
{"c":18,"s":"전동"},
{"c":19,"s":"동성로3가"},
{"c":20,"s":"동문동"},
{"c":21,"s":"문화동"},
{"c":22,"s":"공평동"},
{"c":23,"s":"동성로2가"},
{"c":24,"s":"태평로1가"},
{"c":25,"s":"교동"},
{"c":26,"s":"용덕동"},
{"c":27,"s":"상덕동"},
{"c":28,"s":"완전동"},
{"c":29,"s":"도원동"},
{"c":30,"s":"수창동"},
{"c":31,"s":"태평로3가"},
{"c":32,"s":"인교동"},
{"c":33,"s":"서야동"},
{"c":34,"s":"서성로1가"},
{"c":35,"s":"시장북로"},
{"c":36,"s":"하서동"},
{"c":37,"s":"남성로"},
{"c":38,"s":"계산동1가"},
{"c":39,"s":"계산동2가"},
{"c":40,"s":"동산동"},
{"c":41,"s":"서문로2가"},
{"c":42,"s":"서성로2가"},
{"c":43,"s":"포정동"},
{"c":44,"s":"서문로1가"},
{"c":45,"s":"서내동"},
{"c":46,"s":"북성로2가"},
{"c":47,"s":"대안동"},
{"c":48,"s":"동성로1가"},
{"c":49,"s":"태평로2가"},
{"c":50,"s":"북성로1가"},
{"c":51,"s":"화전동"},
{"c":52,"s":"향촌동"},
{"c":53,"s":"북내동"},
{"c":54,"s":"대신동"},
{"c":55,"s":"달성동"},
{"c":56,"s":"남산동"},
{"c":57,"s":"대봉동"}]