[{"c":1,"s":"칠성동1가"},
{"c":2,"s":"칠성동2가"},
{"c":3,"s":"고성동1가"},
{"c":4,"s":"고성동2가"},
{"c":5,"s":"고성동3가"},
{"c":6,"s":"침산동"},
{"c":7,"s":"노원동1가"},
{"c":8,"s":"노원동2가"},
{"c":9,"s":"노원동3가"},
{"c":10,"s":"대현동"},
{"c":11,"s":"산격동"},
{"c":12,"s":"복현동"},
{"c":13,"s":"검단동"},
{"c":14,"s":"동변동"},
{"c":15,"s":"서변동"},
{"c":16,"s":"조야동"},
{"c":17,"s":"노곡동"},
{"c":18,"s":"읍내동"},
{"c":19,"s":"동호동"},
{"c":20,"s":"학정동"},
{"c":21,"s":"도남동"},
{"c":22,"s":"국우동"},
{"c":23,"s":"구암동"},
{"c":24,"s":"동천동"},
{"c":25,"s":"관음동"},
{"c":26,"s":"태전동"},
{"c":27,"s":"매천동"},
{"c":28,"s":"팔달동"},
{"c":29,"s":"금호동"},
{"c":30,"s":"사수동"},
{"c":31,"s":"연경동"}]