[{"c":1,"s":"용당동"},
{"c":2,"s":"산정동"},
{"c":3,"s":"연산동"},
{"c":4,"s":"대성동"},
{"c":5,"s":"양동"},
{"c":6,"s":"북교동"},
{"c":7,"s":"남교동"},
{"c":8,"s":"호남동"},
{"c":9,"s":"대안동"},
{"c":10,"s":"창평동"},
{"c":11,"s":"명륜동"},
{"c":12,"s":"죽동"},
{"c":13,"s":"무안동"},
{"c":14,"s":"측후동"},
{"c":15,"s":"상락동1가"},
{"c":16,"s":"상락동2가"},
{"c":17,"s":"복만동"},
{"c":18,"s":"동명동"},
{"c":19,"s":"광동1가"},
{"c":20,"s":"광동2가"},
{"c":21,"s":"광동3가"},
{"c":22,"s":"영해동1가"},
{"c":23,"s":"영해동2가"},
{"c":24,"s":"행복동1가"},
{"c":25,"s":"행복동2가"},
{"c":26,"s":"축복동1가"},
{"c":27,"s":"축복동2가"},
{"c":28,"s":"축복동3가"},
{"c":29,"s":"보광동1가"},
{"c":30,"s":"보광동2가"},
{"c":31,"s":"보광동3가"},
{"c":32,"s":"유달동"},
{"c":33,"s":"대의동1가"},
{"c":34,"s":"대의동2가"},
{"c":35,"s":"대의동3가"},
{"c":36,"s":"중앙동1가"},
{"c":37,"s":"중앙동2가"},
{"c":38,"s":"중앙동3가"},
{"c":39,"s":"만호동"},
{"c":40,"s":"수강동1가"},
{"c":41,"s":"수강동2가"},
{"c":42,"s":"해안동1가"},
{"c":43,"s":"해안동2가"},
{"c":44,"s":"해안동3가"},
{"c":45,"s":"해안동4가"},
{"c":46,"s":"항동"},
{"c":47,"s":"중동1가"},
{"c":48,"s":"중동2가"},
{"c":49,"s":"유동"},
{"c":50,"s":"금동1가"},
{"c":51,"s":"금동2가"},
{"c":52,"s":"경동1가"},
{"c":53,"s":"경동2가"},
{"c":54,"s":"서산동"},
{"c":55,"s":"금화동"},
{"c":56,"s":"온금동"},
{"c":57,"s":"죽교동"},
{"c":58,"s":"상동"},
{"c":59,"s":"용해동"},
{"c":60,"s":"석현동"},
{"c":61,"s":"달동"},
{"c":62,"s":"율도동"},
{"c":63,"s":"대양동"},
{"c":64,"s":"옥암동"}]