[{"c":1,"s":"무안읍 성내리"},
{"c":2,"s":"무안읍 성동리"},
{"c":3,"s":"무안읍 성남리"},
{"c":4,"s":"무안읍 교촌리"},
{"c":5,"s":"무안읍 용월리"},
{"c":6,"s":"무안읍 고절리"},
{"c":7,"s":"무안읍 매곡리"},
{"c":8,"s":"무안읍 성암리"},
{"c":9,"s":"무안읍 평용리"},
{"c":10,"s":"무안읍 신학리"},
{"c":11,"s":"일로읍 청호리"},
{"c":12,"s":"일로읍 망월리"},
{"c":13,"s":"일로읍 죽산리"},
{"c":14,"s":"일로읍 구정리"},
{"c":15,"s":"일로읍 의산리"},
{"c":16,"s":"일로읍 월암리"},
{"c":17,"s":"일로읍 용산리"},
{"c":18,"s":"일로읍 산정리"},
{"c":19,"s":"일로읍 광암리"},
{"c":20,"s":"일로읍 상신기리"},
{"c":21,"s":"일로읍 복룡리"},
{"c":22,"s":"일로읍 지장리"},
{"c":23,"s":"일로읍 감돈리"},
{"c":24,"s":"삼향읍 임성리"},
{"c":25,"s":"삼향읍 남악리"},
{"c":26,"s":"삼향읍 용포리"},
{"c":27,"s":"삼향읍 맥포리"},
{"c":28,"s":"삼향읍 유교리"},
{"c":29,"s":"삼향읍 왕산리"},
{"c":30,"s":"삼향읍 지산리"},
{"c":31,"s":"몽탄면 달산리"},
{"c":32,"s":"몽탄면 봉명리"},
{"c":33,"s":"몽탄면 양장리"},
{"c":34,"s":"몽탄면 청용리"},
{"c":35,"s":"몽탄면 당호리"},
{"c":36,"s":"몽탄면 명산리"},
{"c":37,"s":"몽탄면 몽강리"},
{"c":38,"s":"몽탄면 약곡리"},
{"c":39,"s":"몽탄면 귀학리"},
{"c":40,"s":"몽탄면 사천리"},
{"c":41,"s":"몽탄면 구산리"},
{"c":42,"s":"몽탄면 이산리"},
{"c":43,"s":"몽탄면 내리"},
{"c":44,"s":"몽탄면 대치리"},
{"c":45,"s":"몽탄면 학산리"},
{"c":46,"s":"몽탄면 다산리"},
{"c":47,"s":"몽탄면 사창리"},
{"c":48,"s":"몽탄면 봉산리"},
{"c":49,"s":"청계면 월선리"},
{"c":50,"s":"청계면 청계리"},
{"c":51,"s":"청계면 도림리"},
{"c":52,"s":"청계면 남성리"},
{"c":53,"s":"청계면 복길리"},
{"c":54,"s":"청계면 구로리"},
{"c":55,"s":"청계면 상마리"},
{"c":56,"s":"청계면 복룡리"},
{"c":57,"s":"청계면 강정리"},
{"c":58,"s":"청계면 도대리"},
{"c":59,"s":"청계면 서호리"},
{"c":60,"s":"청계면 송현리"},
{"c":61,"s":"청계면 청수리"},
{"c":62,"s":"청계면 태봉리"},
{"c":63,"s":"청계면 남안리"},
{"c":64,"s":"청계면 사마리"},
{"c":65,"s":"청계면 청천리"},
{"c":66,"s":"현경면 양학리"},
{"c":67,"s":"현경면 동산리"},
{"c":68,"s":"현경면 평산리"},
{"c":69,"s":"현경면 외반리"},
{"c":70,"s":"현경면 현화리"},
{"c":71,"s":"현경면 해운리"},
{"c":72,"s":"현경면 송정리"},
{"c":73,"s":"현경면 수양리"},
{"c":74,"s":"현경면 용정리"},
{"c":75,"s":"현경면 오류리"},
{"c":76,"s":"현경면 마산리"},
{"c":77,"s":"현경면 가입리"},
{"c":78,"s":"망운면 목동리"},
{"c":79,"s":"망운면 목서리"},
{"c":80,"s":"망운면 피서리"},
{"c":81,"s":"망운면 송현리"},
{"c":82,"s":"망운면 탄도리"},
{"c":83,"s":"해제면 유월리"},
{"c":84,"s":"해제면 용학리"},
{"c":85,"s":"해제면 만풍리"},
{"c":86,"s":"해제면 송석리"},
{"c":87,"s":"해제면 양매리"},
{"c":88,"s":"해제면 신정리"},
{"c":89,"s":"해제면 덕산리"},
{"c":90,"s":"해제면 대사리"},
{"c":91,"s":"해제면 학송리"},
{"c":92,"s":"해제면 석룡리"},
{"c":93,"s":"해제면 임수리"},
{"c":94,"s":"해제면 광산리"},
{"c":95,"s":"해제면 산길리"},
{"c":96,"s":"해제면 천장리"},
{"c":97,"s":"해제면 창매리"},
{"c":98,"s":"해제면 양월리"},
{"c":99,"s":"운남면 하묘리"},
{"c":100,"s":"운남면 동암리"},
{"c":101,"s":"운남면 연리"},
{"c":102,"s":"운남면 내리"},
{"c":103,"s":"운남면 성내리"}]