[{"c":1,"s":"지도읍 내양리"},
{"c":2,"s":"지도읍 봉리"},
{"c":3,"s":"지도읍 어의리"},
{"c":4,"s":"지도읍 감정리"},
{"c":5,"s":"지도읍 읍내리"},
{"c":6,"s":"지도읍 광정리"},
{"c":7,"s":"지도읍 탄동리"},
{"c":8,"s":"지도읍 당촌리"},
{"c":9,"s":"지도읍 자동리"},
{"c":10,"s":"지도읍 태천리"},
{"c":11,"s":"지도읍 선도리"},
{"c":12,"s":"압해읍 복룡리"},
{"c":13,"s":"압해읍 가룡리"},
{"c":14,"s":"압해읍 고이리"},
{"c":15,"s":"압해읍 매화리"},
{"c":16,"s":"압해읍 신용리"},
{"c":17,"s":"압해읍 학교리"},
{"c":18,"s":"압해읍 동서리"},
{"c":19,"s":"압해읍 대천리"},
{"c":20,"s":"압해읍 송공리"},
{"c":21,"s":"압해읍 분매리"},
{"c":22,"s":"압해읍 신장리"},
{"c":23,"s":"압해읍 장감리"},
{"c":24,"s":"압해읍 가란리"},
{"c":25,"s":"증도면 증동리"},
{"c":26,"s":"증도면 방축리"},
{"c":27,"s":"증도면 대초리"},
{"c":28,"s":"증도면 우전리"},
{"c":29,"s":"증도면 병풍리"},
{"c":30,"s":"임자면 도찬리"},
{"c":31,"s":"임자면 대기리"},
{"c":32,"s":"임자면 광산리"},
{"c":33,"s":"임자면 재원리"},
{"c":34,"s":"임자면 삼두리"},
{"c":35,"s":"임자면 이흑암리"},
{"c":36,"s":"임자면 진리"},
{"c":37,"s":"임자면 수도리"},
{"c":38,"s":"자은면 한운리"},
{"c":39,"s":"자은면 송산리"},
{"c":40,"s":"자은면 대율리"},
{"c":41,"s":"자은면 유천리"},
{"c":42,"s":"자은면 유각리"},
{"c":43,"s":"자은면 면전리"},
{"c":44,"s":"자은면 백산리"},
{"c":45,"s":"자은면 고장리"},
{"c":46,"s":"자은면 구영리"},
{"c":47,"s":"비금면 광대리"},
{"c":48,"s":"비금면 용소리"},
{"c":49,"s":"비금면 도고리"},
{"c":50,"s":"비금면 가산리"},
{"c":51,"s":"비금면 덕산리"},
{"c":52,"s":"비금면 지당리"},
{"c":53,"s":"비금면 구림리"},
{"c":54,"s":"비금면 신원리"},
{"c":55,"s":"비금면 고서리"},
{"c":56,"s":"비금면 죽림리"},
{"c":57,"s":"비금면 내월리"},
{"c":58,"s":"비금면 수대리"},
{"c":59,"s":"비금면 수치리"},
{"c":60,"s":"도초면 발매리"},
{"c":61,"s":"도초면 지남리"},
{"c":62,"s":"도초면 외남리"},
{"c":63,"s":"도초면 오류리"},
{"c":64,"s":"도초면 수항리"},
{"c":65,"s":"도초면 죽연리"},
{"c":66,"s":"도초면 고란리"},
{"c":67,"s":"도초면 이곡리"},
{"c":68,"s":"도초면 만년리"},
{"c":69,"s":"도초면 수다리"},
{"c":70,"s":"도초면 우이도리"},
{"c":71,"s":"흑산면 진리"},
{"c":72,"s":"흑산면 예리"},
{"c":73,"s":"흑산면 비리"},
{"c":74,"s":"흑산면 사리"},
{"c":75,"s":"흑산면 심리"},
{"c":76,"s":"흑산면 영산리"},
{"c":77,"s":"흑산면 오리"},
{"c":78,"s":"흑산면 홍도리"},
{"c":79,"s":"흑산면 태도리"},
{"c":80,"s":"흑산면 수리"},
{"c":81,"s":"흑산면 가거도리"},
{"c":82,"s":"흑산면 만재도리"},
{"c":83,"s":"흑산면 다물도리"},
{"c":84,"s":"하의면 웅곡리"},
{"c":85,"s":"하의면 어은리"},
{"c":86,"s":"하의면 오림리"},
{"c":87,"s":"하의면 대리"},
{"c":88,"s":"하의면 후광리"},
{"c":89,"s":"하의면 능산리"},
{"c":90,"s":"하의면 옥도리"},
{"c":91,"s":"신의면 상태서리"},
{"c":92,"s":"신의면 상태동리"},
{"c":93,"s":"신의면 하태서리"},
{"c":94,"s":"신의면 하태동리"},
{"c":95,"s":"신의면 고평사도리"},
{"c":96,"s":"장산면 오음리"},
{"c":97,"s":"장산면 대리"},
{"c":98,"s":"장산면 도창리"},
{"c":99,"s":"장산면 공수리"},
{"c":100,"s":"장산면 팽진리"},
{"c":101,"s":"장산면 다수리"},
{"c":102,"s":"장산면 마진도리"},
{"c":103,"s":"안좌면 금산리"},
{"c":104,"s":"안좌면 탄동리"},
{"c":105,"s":"안좌면 산두리"},
{"c":106,"s":"안좌면 대리"},
{"c":107,"s":"안좌면 복호리"},
{"c":108,"s":"안좌면 자라리"},
{"c":109,"s":"안좌면 존포리"},
{"c":110,"s":"안좌면 향목리"},
{"c":111,"s":"안좌면 여흘리"},
{"c":112,"s":"안좌면 남강리"},
{"c":113,"s":"안좌면 대척리"},
{"c":114,"s":"안좌면 창마리"},
{"c":115,"s":"안좌면 소곡리"},
{"c":116,"s":"안좌면 박지리"},
{"c":117,"s":"안좌면 반월리"},
{"c":118,"s":"안좌면 구대리"},
{"c":119,"s":"안좌면 마명리"},
{"c":120,"s":"안좌면 신촌리"},
{"c":121,"s":"안좌면 대우리"},
{"c":122,"s":"안좌면 방월리"},
{"c":123,"s":"안좌면 내호리"},
{"c":124,"s":"안좌면 한운리"},
{"c":125,"s":"안좌면 시서리"},
{"c":126,"s":"안좌면 읍동리"},
{"c":127,"s":"안좌면 마진리"},
{"c":128,"s":"팔금면 대심리"},
{"c":129,"s":"팔금면 장촌리"},
{"c":130,"s":"팔금면 원산리"},
{"c":131,"s":"팔금면 읍리"},
{"c":132,"s":"팔금면 진고리"},
{"c":133,"s":"팔금면 이목리"},
{"c":134,"s":"팔금면 당고리"},
{"c":135,"s":"암태면 도창리"},
{"c":136,"s":"암태면 수곡리"},
{"c":137,"s":"암태면 와촌리"},
{"c":138,"s":"암태면 단고리"},
{"c":139,"s":"암태면 오상리"},
{"c":140,"s":"암태면 기동리"},
{"c":141,"s":"암태면 송곡리"},
{"c":142,"s":"암태면 신석리"},
{"c":143,"s":"암태면 당사리"}]