[{"c":1,"s":"고흥읍 고소리"},
{"c":2,"s":"고흥읍 호동리"},
{"c":3,"s":"고흥읍 성촌리"},
{"c":4,"s":"고흥읍 등암리"},
{"c":5,"s":"고흥읍 호형리"},
{"c":6,"s":"고흥읍 남계리"},
{"c":7,"s":"고흥읍 옥하리"},
{"c":8,"s":"고흥읍 서문리"},
{"c":9,"s":"고흥읍 행정리"},
{"c":10,"s":"도양읍 장계리"},
{"c":11,"s":"도양읍 관리"},
{"c":12,"s":"도양읍 용정리"},
{"c":13,"s":"도양읍 봉암리"},
{"c":14,"s":"도양읍 득량리"},
{"c":15,"s":"도양읍 소록리"},
{"c":16,"s":"도양읍 시산리"},
{"c":17,"s":"풍양면 상림리"},
{"c":18,"s":"풍양면 야막리"},
{"c":19,"s":"풍양면 보천리"},
{"c":20,"s":"풍양면 당두리"},
{"c":21,"s":"풍양면 고옥리"},
{"c":22,"s":"풍양면 한동리"},
{"c":23,"s":"풍양면 안동리"},
{"c":24,"s":"풍양면 매곡리"},
{"c":25,"s":"풍양면 풍남리"},
{"c":26,"s":"풍양면 송정리"},
{"c":27,"s":"풍양면 율치리"},
{"c":28,"s":"풍양면 봉양리"},
{"c":29,"s":"도덕면 도덕리"},
{"c":30,"s":"도덕면 신양리"},
{"c":31,"s":"도덕면 가야리"},
{"c":32,"s":"도덕면 봉덕리"},
{"c":33,"s":"도덕면 오마리"},
{"c":34,"s":"도덕면 용동리"},
{"c":35,"s":"금산면 대흥리"},
{"c":36,"s":"금산면 어전리"},
{"c":37,"s":"금산면 신전리"},
{"c":38,"s":"금산면 신촌리"},
{"c":39,"s":"금산면 석정리"},
{"c":40,"s":"금산면 신평리"},
{"c":41,"s":"금산면 오천리"},
{"c":42,"s":"도화면 가화리"},
{"c":43,"s":"도화면 구암리"},
{"c":44,"s":"도화면 사덕리"},
{"c":45,"s":"도화면 덕중리"},
{"c":46,"s":"도화면 봉산리"},
{"c":47,"s":"도화면 당오리"},
{"c":48,"s":"도화면 신호리"},
{"c":49,"s":"도화면 봉룡리"},
{"c":50,"s":"도화면 지죽리"},
{"c":51,"s":"도화면 발포리"},
{"c":52,"s":"포두면 남성리"},
{"c":53,"s":"포두면 옥강리"},
{"c":54,"s":"포두면 차동리"},
{"c":55,"s":"포두면 세동리"},
{"c":56,"s":"포두면 길두리"},
{"c":57,"s":"포두면 상대리"},
{"c":58,"s":"포두면 봉림리"},
{"c":59,"s":"포두면 장수리"},
{"c":60,"s":"포두면 상포리"},
{"c":61,"s":"포두면 남촌리"},
{"c":62,"s":"포두면 송산리"},
{"c":63,"s":"포두면 오취리"},
{"c":64,"s":"봉래면 외초리"},
{"c":65,"s":"봉래면 예내리"},
{"c":66,"s":"봉래면 신금리"},
{"c":67,"s":"봉래면 사양리"},
{"c":68,"s":"점암면 천학리"},
{"c":69,"s":"점암면 장남리"},
{"c":70,"s":"점암면 강산리"},
{"c":71,"s":"점암면 여호리"},
{"c":72,"s":"점암면 화계리"},
{"c":73,"s":"점암면 성기리"},
{"c":74,"s":"점암면 모룡리"},
{"c":75,"s":"점암면 대룡리"},
{"c":76,"s":"점암면 사정리"},
{"c":77,"s":"점암면 연봉리"},
{"c":78,"s":"점암면 신안리"},
{"c":79,"s":"과역면 신곡리"},
{"c":80,"s":"과역면 백일리"},
{"c":81,"s":"과역면 연등리"},
{"c":82,"s":"과역면 호덕리"},
{"c":83,"s":"과역면 석봉리"},
{"c":84,"s":"과역면 과역리"},
{"c":85,"s":"과역면 노일리"},
{"c":86,"s":"과역면 도천리"},
{"c":87,"s":"남양면 장담리"},
{"c":88,"s":"남양면 신흥리"},
{"c":89,"s":"남양면 대곡리"},
{"c":90,"s":"남양면 남양리"},
{"c":91,"s":"남양면 중산리"},
{"c":92,"s":"남양면 월정리"},
{"c":93,"s":"남양면 망주리"},
{"c":94,"s":"남양면 침교리"},
{"c":95,"s":"동강면 유둔리"},
{"c":96,"s":"동강면 마륜리"},
{"c":97,"s":"동강면 대강리"},
{"c":98,"s":"동강면 매곡리"},
{"c":99,"s":"동강면 한천리"},
{"c":100,"s":"동강면 오월리"},
{"c":101,"s":"동강면 청송리"},
{"c":102,"s":"동강면 죽암리"},
{"c":103,"s":"동강면 장덕리"},
{"c":104,"s":"동강면 노동리"},
{"c":105,"s":"대서면 금마리"},
{"c":106,"s":"대서면 남정리"},
{"c":107,"s":"대서면 안남리"},
{"c":108,"s":"대서면 화산리"},
{"c":109,"s":"대서면 송림리"},
{"c":110,"s":"대서면 송강리"},
{"c":111,"s":"대서면 상남리"},
{"c":112,"s":"두원면 학곡리"},
{"c":113,"s":"두원면 관덕리"},
{"c":114,"s":"두원면 풍류리"},
{"c":115,"s":"두원면 대금리"},
{"c":116,"s":"두원면 용당리"},
{"c":117,"s":"두원면 대전리"},
{"c":118,"s":"두원면 예회리"},
{"c":119,"s":"두원면 성두리"},
{"c":120,"s":"두원면 영오리"},
{"c":121,"s":"두원면 용산리"},
{"c":122,"s":"두원면 신송리"},
{"c":123,"s":"두원면 용반리"},
{"c":124,"s":"두원면 운대리"},
{"c":125,"s":"영남면 양사리"},
{"c":126,"s":"영남면 금사리"},
{"c":127,"s":"영남면 남열리"},
{"c":128,"s":"영남면 우천리"},
{"c":129,"s":"동일면 봉영리"},
{"c":130,"s":"동일면 백양리"},
{"c":131,"s":"동일면 덕흥리"}]