[{"c":1,"s":"중앙동1가"},
{"c":2,"s":"중앙동2가"},
{"c":3,"s":"중앙동3가"},
{"c":4,"s":"중앙동4가"},
{"c":5,"s":"경원동1가"},
{"c":6,"s":"경원동2가"},
{"c":7,"s":"경원동3가"},
{"c":8,"s":"풍남동1가"},
{"c":9,"s":"풍남동2가"},
{"c":10,"s":"풍남동3가"},
{"c":11,"s":"전동"},
{"c":12,"s":"전동3가"},
{"c":13,"s":"다가동1가"},
{"c":14,"s":"다가동2가"},
{"c":15,"s":"다가동3가"},
{"c":16,"s":"다가동4가"},
{"c":17,"s":"고사동"},
{"c":18,"s":"교동"},
{"c":19,"s":"태평동"},
{"c":20,"s":"중노송동"},
{"c":21,"s":"남노송동"},
{"c":22,"s":"동완산동"},
{"c":23,"s":"서완산동1가"},
{"c":24,"s":"서완산동2가"},
{"c":25,"s":"동서학동"},
{"c":26,"s":"서서학동"},
{"c":27,"s":"중화산동1가"},
{"c":28,"s":"중화산동2가"},
{"c":29,"s":"서신동"},
{"c":30,"s":"석구동"},
{"c":31,"s":"원당동"},
{"c":32,"s":"평화동1가"},
{"c":33,"s":"평화동2가"},
{"c":34,"s":"평화동3가"},
{"c":35,"s":"중인동"},
{"c":36,"s":"용복동"},
{"c":37,"s":"삼천동1가"},
{"c":38,"s":"삼천동2가"},
{"c":39,"s":"삼천동3가"},
{"c":40,"s":"효자동1가"},
{"c":41,"s":"효자동2가"},
{"c":42,"s":"효자동3가"},
{"c":43,"s":"대성동"},
{"c":44,"s":"색장동"},
{"c":45,"s":"상림동"},
{"c":46,"s":"중동"},
{"c":47,"s":"서노송동"}]