[{"c":1,"s":"무주읍 읍내리"},
{"c":2,"s":"무주읍 당산리"},
{"c":3,"s":"무주읍 오산리"},
{"c":4,"s":"무주읍 장백리"},
{"c":5,"s":"무주읍 내도리"},
{"c":6,"s":"무주읍 대차리"},
{"c":7,"s":"무주읍 용포리"},
{"c":8,"s":"무주읍 가옥리"},
{"c":9,"s":"무풍면 현내리"},
{"c":10,"s":"무풍면 금평리"},
{"c":11,"s":"무풍면 지성리"},
{"c":12,"s":"무풍면 철목리"},
{"c":13,"s":"무풍면 증산리"},
{"c":14,"s":"무풍면 은산리"},
{"c":15,"s":"무풍면 덕지리"},
{"c":16,"s":"무풍면 삼거리"},
{"c":17,"s":"설천면 기곡리"},
{"c":18,"s":"설천면 길산리"},
{"c":19,"s":"설천면 청량리"},
{"c":20,"s":"설천면 소천리"},
{"c":21,"s":"설천면 대불리"},
{"c":22,"s":"설천면 미천리"},
{"c":23,"s":"설천면 장덕리"},
{"c":24,"s":"설천면 두길리"},
{"c":25,"s":"설천면 심곡리"},
{"c":26,"s":"설천면 삼공리"},
{"c":27,"s":"적상면 사산리"},
{"c":28,"s":"적상면 사천리"},
{"c":29,"s":"적상면 삼가리"},
{"c":30,"s":"적상면 삼유리"},
{"c":31,"s":"적상면 방이리"},
{"c":32,"s":"적상면 북창리"},
{"c":33,"s":"적상면 포내리"},
{"c":34,"s":"적상면 괴목리"},
{"c":35,"s":"안성면 장기리"},
{"c":36,"s":"안성면 공진리"},
{"c":37,"s":"안성면 죽천리"},
{"c":38,"s":"안성면 공정리"},
{"c":39,"s":"안성면 덕산리"},
{"c":40,"s":"안성면 금평리"},
{"c":41,"s":"안성면 사전리"},
{"c":42,"s":"안성면 진도리"},
{"c":43,"s":"부남면 대유리"},
{"c":44,"s":"부남면 대소리"},
{"c":45,"s":"부남면 고창리"},
{"c":46,"s":"부남면 장안리"},
{"c":47,"s":"부남면 굴암리"},
{"c":48,"s":"부남면 가당리"}]