[{"c":1,"s":"장수읍 장수리"},
{"c":2,"s":"장수읍 노하리"},
{"c":3,"s":"장수읍 선창리"},
{"c":4,"s":"장수읍 노곡리"},
{"c":5,"s":"장수읍 동촌리"},
{"c":6,"s":"장수읍 덕산리"},
{"c":7,"s":"장수읍 두산리"},
{"c":8,"s":"장수읍 개정리"},
{"c":9,"s":"장수읍 수분리"},
{"c":10,"s":"장수읍 송천리"},
{"c":11,"s":"장수읍 용계리"},
{"c":12,"s":"장수읍 대성리"},
{"c":13,"s":"장수읍 식천리"},
{"c":14,"s":"산서면 오성리"},
{"c":15,"s":"산서면 쌍계리"},
{"c":16,"s":"산서면 사계리"},
{"c":17,"s":"산서면 봉서리"},
{"c":18,"s":"산서면 하월리"},
{"c":19,"s":"산서면 사상리"},
{"c":20,"s":"산서면 이룡리"},
{"c":21,"s":"산서면 신창리"},
{"c":22,"s":"산서면 오산리"},
{"c":23,"s":"산서면 건지리"},
{"c":24,"s":"산서면 마하리"},
{"c":25,"s":"산서면 백운리"},
{"c":26,"s":"산서면 학선리"},
{"c":27,"s":"산서면 동화리"},
{"c":28,"s":"번암면 교동리"},
{"c":29,"s":"번암면 국포리"},
{"c":30,"s":"번암면 죽산리"},
{"c":31,"s":"번암면 사암리"},
{"c":32,"s":"번암면 지지리"},
{"c":33,"s":"번암면 동화리"},
{"c":34,"s":"번암면 죽림리"},
{"c":35,"s":"번암면 노단리"},
{"c":36,"s":"번암면 논곡리"},
{"c":37,"s":"번암면 대론리"},
{"c":38,"s":"번암면 유정리"},
{"c":39,"s":"장계면 장계리"},
{"c":40,"s":"장계면 금곡리"},
{"c":41,"s":"장계면 무농리"},
{"c":42,"s":"장계면 금덕리"},
{"c":43,"s":"장계면 송천리"},
{"c":44,"s":"장계면 월강리"},
{"c":45,"s":"장계면 삼봉리"},
{"c":46,"s":"장계면 명덕리"},
{"c":47,"s":"장계면 오동리"},
{"c":48,"s":"장계면 대곡리"},
{"c":49,"s":"천천면 장판리"},
{"c":50,"s":"천천면 월곡리"},
{"c":51,"s":"천천면 남양리"},
{"c":52,"s":"천천면 삼고리"},
{"c":53,"s":"천천면 봉덕리"},
{"c":54,"s":"천천면 춘송리"},
{"c":55,"s":"천천면 용광리"},
{"c":56,"s":"천천면 오봉리"},
{"c":57,"s":"천천면 연평리"},
{"c":58,"s":"천천면 비룡리"},
{"c":59,"s":"계남면 침곡리"},
{"c":60,"s":"계남면 화양리"},
{"c":61,"s":"계남면 신전리"},
{"c":62,"s":"계남면 호덕리"},
{"c":63,"s":"계남면 화음리"},
{"c":64,"s":"계남면 가곡리"},
{"c":65,"s":"계남면 궁양리"},
{"c":66,"s":"계남면 장안리"},
{"c":67,"s":"계북면 월현리"},
{"c":68,"s":"계북면 매계리"},
{"c":69,"s":"계북면 농소리"},
{"c":70,"s":"계북면 어전리"},
{"c":71,"s":"계북면 임평리"},
{"c":72,"s":"계북면 원촌리"},
{"c":73,"s":"계북면 양악리"}]