[{"c":1,"s":"부안읍 동중리"},
{"c":2,"s":"부안읍 서외리"},
{"c":3,"s":"부안읍 선은리"},
{"c":4,"s":"부안읍 봉덕리"},
{"c":5,"s":"부안읍 신운리"},
{"c":6,"s":"부안읍 모산리"},
{"c":7,"s":"부안읍 행중리"},
{"c":8,"s":"부안읍 연곡리"},
{"c":9,"s":"부안읍 옹중리"},
{"c":10,"s":"부안읍 내요리"},
{"c":11,"s":"부안읍 외하리"},
{"c":12,"s":"부안읍 신흥리"},
{"c":13,"s":"주산면 소주리"},
{"c":14,"s":"주산면 덕림리"},
{"c":15,"s":"주산면 동정리"},
{"c":16,"s":"주산면 소산리"},
{"c":17,"s":"주산면 갈촌리"},
{"c":18,"s":"주산면 사산리"},
{"c":19,"s":"주산면 돈계리"},
{"c":20,"s":"주산면 백석리"},
{"c":21,"s":"동진면 봉황리"},
{"c":22,"s":"동진면 내기리"},
{"c":23,"s":"동진면 하장리"},
{"c":24,"s":"동진면 장등리"},
{"c":25,"s":"동진면 동전리"},
{"c":26,"s":"동진면 안성리"},
{"c":27,"s":"동진면 본덕리"},
{"c":28,"s":"동진면 증산리"},
{"c":29,"s":"동진면 당상리"},
{"c":30,"s":"행안면 역리"},
{"c":31,"s":"행안면 삼간리"},
{"c":32,"s":"행안면 진동리"},
{"c":33,"s":"행안면 대초리"},
{"c":34,"s":"행안면 신기리"},
{"c":35,"s":"계화면 계화리"},
{"c":36,"s":"계화면 창북리"},
{"c":37,"s":"계화면 양산리"},
{"c":38,"s":"계화면 궁안리"},
{"c":39,"s":"계화면 의복리"},
{"c":40,"s":"보안면 영전리"},
{"c":41,"s":"보안면 상입석리"},
{"c":42,"s":"보안면 남포리"},
{"c":43,"s":"보안면 우동리"},
{"c":44,"s":"보안면 신복리"},
{"c":45,"s":"보안면 유천리"},
{"c":46,"s":"보안면 하입석리"},
{"c":47,"s":"보안면 상림리"},
{"c":48,"s":"보안면 월천리"},
{"c":49,"s":"보안면 부곡리"},
{"c":50,"s":"변산면 도청리"},
{"c":51,"s":"변산면 격포리"},
{"c":52,"s":"변산면 마포리"},
{"c":53,"s":"변산면 운산리"},
{"c":54,"s":"변산면 지서리"},
{"c":55,"s":"변산면 대항리"},
{"c":56,"s":"변산면 중계리"},
{"c":57,"s":"진서면 진서리"},
{"c":58,"s":"진서면 석포리"},
{"c":59,"s":"진서면 운호리"},
{"c":60,"s":"진서면 곰소리"},
{"c":61,"s":"백산면 금판리"},
{"c":62,"s":"백산면 용계리"},
{"c":63,"s":"백산면 원천리"},
{"c":64,"s":"백산면 대수리"},
{"c":65,"s":"백산면 하청리"},
{"c":66,"s":"백산면 거룡리"},
{"c":67,"s":"백산면 대죽리"},
{"c":68,"s":"백산면 평교리"},
{"c":69,"s":"백산면 오곡리"},
{"c":70,"s":"백산면 덕신리"},
{"c":71,"s":"백산면 신평리"},
{"c":72,"s":"백산면 죽림리"},
{"c":73,"s":"상서면 감교리"},
{"c":74,"s":"상서면 가오리"},
{"c":75,"s":"상서면 고잔리"},
{"c":76,"s":"상서면 용서리"},
{"c":77,"s":"상서면 장동리"},
{"c":78,"s":"상서면 통정리"},
{"c":79,"s":"상서면 청림리"},
{"c":80,"s":"하서면 청호리"},
{"c":81,"s":"하서면 언독리"},
{"c":82,"s":"하서면 석상리"},
{"c":83,"s":"하서면 백련리"},
{"c":84,"s":"하서면 장신리"},
{"c":85,"s":"줄포면 줄포리"},
{"c":86,"s":"줄포면 장동리"},
{"c":87,"s":"줄포면 우포리"},
{"c":88,"s":"줄포면 신리"},
{"c":89,"s":"줄포면 난산리"},
{"c":90,"s":"줄포면 파산리"},
{"c":91,"s":"줄포면 대동리"},
{"c":92,"s":"위도면 진리"},
{"c":93,"s":"위도면 정금리"},
{"c":94,"s":"위도면 치도리"},
{"c":95,"s":"위도면 대리"},
{"c":96,"s":"위도면 거륜리"},
{"c":97,"s":"위도면 식도리"},
{"c":98,"s":"위도면 상왕등리"},
{"c":99,"s":"위도면 하왕등리"}]