[{"c":1,"s":"창인동1가"},
{"c":2,"s":"창인동2가"},
{"c":3,"s":"중앙동1가"},
{"c":4,"s":"중앙동2가"},
{"c":5,"s":"중앙동3가"},
{"c":6,"s":"평화동"},
{"c":7,"s":"갈산동"},
{"c":8,"s":"주현동"},
{"c":9,"s":"인화동1가"},
{"c":10,"s":"인화동2가"},
{"c":11,"s":"동산동"},
{"c":12,"s":"마동"},
{"c":13,"s":"남중동"},
{"c":14,"s":"모현동1가"},
{"c":15,"s":"모현동2가"},
{"c":16,"s":"송학동"},
{"c":17,"s":"목천동"},
{"c":18,"s":"만석동"},
{"c":19,"s":"현영동"},
{"c":20,"s":"신용동"},
{"c":21,"s":"신동"},
{"c":22,"s":"영등동"},
{"c":23,"s":"어양동"},
{"c":24,"s":"신흥동"},
{"c":25,"s":"금강동"},
{"c":26,"s":"석탄동"},
{"c":27,"s":"팔봉동"},
{"c":28,"s":"덕기동"},
{"c":29,"s":"석왕동"},
{"c":30,"s":"은기동"},
{"c":31,"s":"정족동"},
{"c":32,"s":"임상동"},
{"c":33,"s":"월성동"},
{"c":34,"s":"부송동"},
{"c":35,"s":"용제동"},
{"c":36,"s":"석암동"},
{"c":37,"s":"함열읍 와리"},
{"c":38,"s":"함열읍 남당리"},
{"c":39,"s":"함열읍 흘산리"},
{"c":40,"s":"함열읍 석매리"},
{"c":41,"s":"함열읍 용지리"},
{"c":42,"s":"함열읍 다송리"},
{"c":43,"s":"오산면 송학리"},
{"c":44,"s":"오산면 장신리"},
{"c":45,"s":"오산면 영만리"},
{"c":46,"s":"오산면 오산리"},
{"c":47,"s":"오산면 신지리"},
{"c":48,"s":"오산면 남전리"},
{"c":49,"s":"오산면 목천리"},
{"c":50,"s":"황등면 황등리"},
{"c":51,"s":"황등면 동연리"},
{"c":52,"s":"황등면 죽촌리"},
{"c":53,"s":"황등면 신성리"},
{"c":54,"s":"황등면 구자리"},
{"c":55,"s":"황등면 용산리"},
{"c":56,"s":"황등면 율촌리"},
{"c":57,"s":"황등면 신기리"},
{"c":58,"s":"함라면 함열리"},
{"c":59,"s":"함라면 금성리"},
{"c":60,"s":"함라면 신대리"},
{"c":61,"s":"함라면 다망리"},
{"c":62,"s":"함라면 신등리"},
{"c":63,"s":"함라면 신목리"},
{"c":64,"s":"웅포면 입점리"},
{"c":65,"s":"웅포면 웅포리"},
{"c":66,"s":"웅포면 송천리"},
{"c":67,"s":"웅포면 고창리"},
{"c":68,"s":"웅포면 맹산리"},
{"c":69,"s":"웅포면 제성리"},
{"c":70,"s":"웅포면 대붕암리"},
{"c":71,"s":"성당면 장선리"},
{"c":72,"s":"성당면 와초리"},
{"c":73,"s":"성당면 대선리"},
{"c":74,"s":"성당면 갈산리"},
{"c":75,"s":"성당면 두동리"},
{"c":76,"s":"성당면 성당리"},
{"c":77,"s":"성당면 부곡리"},
{"c":78,"s":"용안면 교동리"},
{"c":79,"s":"용안면 덕용리"},
{"c":80,"s":"용안면 중신리"},
{"c":81,"s":"용안면 창리"},
{"c":82,"s":"용안면 용두리"},
{"c":83,"s":"용안면 법성리"},
{"c":84,"s":"용안면 석동리"},
{"c":85,"s":"용안면 난포리"},
{"c":86,"s":"용안면 송산리"},
{"c":87,"s":"용안면 동지산리"},
{"c":88,"s":"용안면 칠목리"},
{"c":89,"s":"낭산면 삼담리"},
{"c":90,"s":"낭산면 호암리"},
{"c":91,"s":"낭산면 석천리"},
{"c":92,"s":"낭산면 낭산리"},
{"c":93,"s":"낭산면 성남리"},
{"c":94,"s":"낭산면 구평리"},
{"c":95,"s":"낭산면 용기리"},
{"c":96,"s":"망성면 신작리"},
{"c":97,"s":"망성면 화산리"},
{"c":98,"s":"망성면 장선리"},
{"c":99,"s":"망성면 어량리"},
{"c":100,"s":"망성면 내촌리"},
{"c":101,"s":"망성면 무형리"},
{"c":102,"s":"여산면 여산리"},
{"c":103,"s":"여산면 제남리"},
{"c":104,"s":"여산면 원수리"},
{"c":105,"s":"여산면 호산리"},
{"c":106,"s":"여산면 태성리"},
{"c":107,"s":"여산면 두여리"},
{"c":108,"s":"금마면 동고도리"},
{"c":109,"s":"금마면 서고도리"},
{"c":110,"s":"금마면 신용리"},
{"c":111,"s":"금마면 산북리"},
{"c":112,"s":"금마면 용순리"},
{"c":113,"s":"금마면 기양리"},
{"c":114,"s":"금마면 갈산리"},
{"c":115,"s":"왕궁면 광암리"},
{"c":116,"s":"왕궁면 흥암리"},
{"c":117,"s":"왕궁면 구덕리"},
{"c":118,"s":"왕궁면 온수리"},
{"c":119,"s":"왕궁면 쌍제리"},
{"c":120,"s":"왕궁면 발산리"},
{"c":121,"s":"왕궁면 평장리"},
{"c":122,"s":"왕궁면 동촌리"},
{"c":123,"s":"왕궁면 도순리"},
{"c":124,"s":"왕궁면 용화리"},
{"c":125,"s":"왕궁면 동봉리"},
{"c":126,"s":"왕궁면 동용리"},
{"c":127,"s":"왕궁면 왕궁리"},
{"c":128,"s":"춘포면 덕실리"},
{"c":129,"s":"춘포면 삼포리"},
{"c":130,"s":"춘포면 오산리"},
{"c":131,"s":"춘포면 신동리"},
{"c":132,"s":"춘포면 창평리"},
{"c":133,"s":"춘포면 천서리"},
{"c":134,"s":"춘포면 천동리"},
{"c":135,"s":"춘포면 쌍정리"},
{"c":136,"s":"춘포면 인수리"},
{"c":137,"s":"춘포면 용연리"},
{"c":138,"s":"춘포면 춘포리"},
{"c":139,"s":"삼기면 간촌리"},
{"c":140,"s":"삼기면 서두리"},
{"c":141,"s":"삼기면 오룡리"},
{"c":142,"s":"삼기면 연동리"},
{"c":143,"s":"삼기면 기산리"},
{"c":144,"s":"삼기면 용연리"},
{"c":145,"s":"용동면 흥왕리"},
{"c":146,"s":"용동면 구산리"},
{"c":147,"s":"용동면 용성리"},
{"c":148,"s":"용동면 대조리"},
{"c":149,"s":"용동면 화실리"},
{"c":150,"s":"용동면 화배리"}]