[{"c":1,"s":"요촌동"},
{"c":2,"s":"신풍동"},
{"c":3,"s":"용동"},
{"c":4,"s":"검산동"},
{"c":5,"s":"순동"},
{"c":6,"s":"백학동"},
{"c":7,"s":"서암동"},
{"c":8,"s":"신곡동"},
{"c":9,"s":"교동"},
{"c":10,"s":"옥산동"},
{"c":11,"s":"갈공동"},
{"c":12,"s":"하동"},
{"c":13,"s":"흥사동"},
{"c":14,"s":"상동동"},
{"c":15,"s":"월성동"},
{"c":16,"s":"황산동"},
{"c":17,"s":"난봉동"},
{"c":18,"s":"오정동"},
{"c":19,"s":"복죽동"},
{"c":20,"s":"입석동"},
{"c":21,"s":"장화동"},
{"c":22,"s":"신덕동"},
{"c":23,"s":"월봉동"},
{"c":24,"s":"신월동"},
{"c":25,"s":"연정동"},
{"c":26,"s":"명덕동"},
{"c":27,"s":"제월동"},
{"c":28,"s":"도장동"},
{"c":29,"s":"서정동"},
{"c":30,"s":"양전동"},
{"c":31,"s":"만경읍 만경리"},
{"c":32,"s":"만경읍 장산리"},
{"c":33,"s":"만경읍 대동리"},
{"c":34,"s":"만경읍 송상리"},
{"c":35,"s":"만경읍 소토리"},
{"c":36,"s":"만경읍 화포리"},
{"c":37,"s":"만경읍 몽산리"},
{"c":38,"s":"죽산면 죽산리"},
{"c":39,"s":"죽산면 홍산리"},
{"c":40,"s":"죽산면 옥성리"},
{"c":41,"s":"죽산면 종신리"},
{"c":42,"s":"죽산면 대창리"},
{"c":43,"s":"죽산면 서포리"},
{"c":44,"s":"죽산면 연포리"},
{"c":45,"s":"죽산면 신흥리"},
{"c":46,"s":"백산면 하정리"},
{"c":47,"s":"백산면 상정리"},
{"c":48,"s":"백산면 상리"},
{"c":49,"s":"백산면 조종리"},
{"c":50,"s":"백산면 수록리"},
{"c":51,"s":"백산면 부거리"},
{"c":52,"s":"백산면 석교리"},
{"c":53,"s":"백산면 하서리"},
{"c":54,"s":"용지면 구암리"},
{"c":55,"s":"용지면 예촌리"},
{"c":56,"s":"용지면 송산리"},
{"c":57,"s":"용지면 봉의리"},
{"c":58,"s":"용지면 와룡리"},
{"c":59,"s":"용지면 효정리"},
{"c":60,"s":"용지면 반교리"},
{"c":61,"s":"용지면 용암리"},
{"c":62,"s":"용지면 부교리"},
{"c":63,"s":"용지면 신정리"},
{"c":64,"s":"용지면 용수리"},
{"c":65,"s":"용지면 장신리"},
{"c":66,"s":"백구면 월봉리"},
{"c":67,"s":"백구면 부용리"},
{"c":68,"s":"백구면 유강리"},
{"c":69,"s":"백구면 삼정리"},
{"c":70,"s":"백구면 백구리"},
{"c":71,"s":"백구면 반월리"},
{"c":72,"s":"백구면 석담리"},
{"c":73,"s":"백구면 학동리"},
{"c":74,"s":"백구면 마산리"},
{"c":75,"s":"백구면 영상리"},
{"c":76,"s":"부량면 대평리"},
{"c":77,"s":"부량면 월승리"},
{"c":78,"s":"부량면 신두리"},
{"c":79,"s":"부량면 신용리"},
{"c":80,"s":"부량면 용성리"},
{"c":81,"s":"부량면 금강리"},
{"c":82,"s":"부량면 옥정리"},
{"c":83,"s":"공덕면 마현리"},
{"c":84,"s":"공덕면 황산리"},
{"c":85,"s":"공덕면 공덕리"},
{"c":86,"s":"공덕면 동계리"},
{"c":87,"s":"공덕면 저산리"},
{"c":88,"s":"공덕면 제말리"},
{"c":89,"s":"공덕면 회룡리"},
{"c":90,"s":"청하면 동지산리"},
{"c":91,"s":"청하면 장산리"},
{"c":92,"s":"청하면 대청리"},
{"c":93,"s":"청하면 관상리"},
{"c":94,"s":"청하면 월현리"},
{"c":95,"s":"성덕면 석동리"},
{"c":96,"s":"성덕면 대목리"},
{"c":97,"s":"성덕면 대석리"},
{"c":98,"s":"성덕면 묘라리"},
{"c":99,"s":"성덕면 성덕리"},
{"c":100,"s":"성덕면 남포리"},
{"c":101,"s":"진봉면 고사리"},
{"c":102,"s":"진봉면 정당리"},
{"c":103,"s":"진봉면 가실리"},
{"c":104,"s":"진봉면 상궐리"},
{"c":105,"s":"진봉면 심포리"},
{"c":106,"s":"금구면 금구리"},
{"c":107,"s":"금구면 용복리"},
{"c":108,"s":"금구면 선암리"},
{"c":109,"s":"금구면 월전리"},
{"c":110,"s":"금구면 오봉리"},
{"c":111,"s":"금구면 대화리"},
{"c":112,"s":"금구면 산동리"},
{"c":113,"s":"금구면 낙성리"},
{"c":114,"s":"금구면 청운리"},
{"c":115,"s":"금구면 용지리"},
{"c":116,"s":"금구면 옥성리"},
{"c":117,"s":"금구면 하신리"},
{"c":118,"s":"금구면 서도리"},
{"c":119,"s":"봉남면 대송리"},
{"c":120,"s":"봉남면 평사리"},
{"c":121,"s":"봉남면 화봉리"},
{"c":122,"s":"봉남면 신호리"},
{"c":123,"s":"봉남면 신응리"},
{"c":124,"s":"봉남면 종덕리"},
{"c":125,"s":"봉남면 행촌리"},
{"c":126,"s":"봉남면 구정리"},
{"c":127,"s":"봉남면 회성리"},
{"c":128,"s":"봉남면 내광리"},
{"c":129,"s":"봉남면 용신리"},
{"c":130,"s":"황산면 봉월리"},
{"c":131,"s":"황산면 용마리"},
{"c":132,"s":"황산면 홍정리"},
{"c":133,"s":"황산면 쌍감리"},
{"c":134,"s":"황산면 남산리"},
{"c":135,"s":"황산면 진흥리"},
{"c":136,"s":"금산면 성계리"},
{"c":137,"s":"금산면 쌍용리"},
{"c":138,"s":"금산면 원평리"},
{"c":139,"s":"금산면 용호리"},
{"c":140,"s":"금산면 선동리"},
{"c":141,"s":"금산면 금성리"},
{"c":142,"s":"금산면 화율리"},
{"c":143,"s":"금산면 장흥리"},
{"c":144,"s":"금산면 금산리"},
{"c":145,"s":"금산면 청도리"},
{"c":146,"s":"금산면 삼봉리"},
{"c":147,"s":"금산면 용산리"},
{"c":148,"s":"금산면 구월리"},
{"c":149,"s":"광활면 옥포리"},
{"c":150,"s":"광활면 은파리"},
{"c":151,"s":"광활면 창제리"}]