[{"c":1,"s":"기장읍 동부리"},
{"c":2,"s":"기장읍 교리"},
{"c":3,"s":"기장읍 신천리"},
{"c":4,"s":"기장읍 죽성리"},
{"c":5,"s":"기장읍 서부리"},
{"c":6,"s":"기장읍 대라리"},
{"c":7,"s":"기장읍 청강리"},
{"c":8,"s":"기장읍 대변리"},
{"c":9,"s":"기장읍 연화리"},
{"c":10,"s":"기장읍 만화리"},
{"c":11,"s":"기장읍 석산리"},
{"c":12,"s":"기장읍 당사리"},
{"c":13,"s":"기장읍 시랑리"},
{"c":14,"s":"기장읍 내리"},
{"c":15,"s":"장안읍 좌천리"},
{"c":16,"s":"장안읍 효암리"},
{"c":17,"s":"장안읍 고리"},
{"c":18,"s":"장안읍 좌동리"},
{"c":19,"s":"장안읍 장안리"},
{"c":20,"s":"장안읍 덕선리"},
{"c":21,"s":"장안읍 용소리"},
{"c":22,"s":"장안읍 기룡리"},
{"c":23,"s":"장안읍 명례리"},
{"c":24,"s":"장안읍 월내리"},
{"c":25,"s":"장안읍 반룡리"},
{"c":26,"s":"장안읍 임랑리"},
{"c":27,"s":"장안읍 오리"},
{"c":28,"s":"장안읍 길천리"},
{"c":29,"s":"정관읍 방곡리"},
{"c":30,"s":"정관읍 매학리"},
{"c":31,"s":"정관읍 임곡리"},
{"c":32,"s":"정관읍 월평리"},
{"c":33,"s":"정관읍 달산리"},
{"c":34,"s":"정관읍 병산리"},
{"c":35,"s":"정관읍 모전리"},
{"c":36,"s":"정관읍 용수리"},
{"c":37,"s":"정관읍 두명리"},
{"c":38,"s":"정관읍 예림리"},
{"c":39,"s":"일광면 삼성리"},
{"c":40,"s":"일광면 이천리"},
{"c":41,"s":"일광면 학리"},
{"c":42,"s":"일광면 동백리"},
{"c":43,"s":"일광면 문중리"},
{"c":44,"s":"일광면 신평리"},
{"c":45,"s":"일광면 칠암리"},
{"c":46,"s":"일광면 문동리"},
{"c":47,"s":"일광면 청광리"},
{"c":48,"s":"일광면 원리"},
{"c":49,"s":"일광면 화전리"},
{"c":50,"s":"일광면 횡계리"},
{"c":51,"s":"일광면 용천리"},
{"c":52,"s":"철마면 와여리"},
{"c":53,"s":"철마면 장전리"},
{"c":54,"s":"철마면 백길리"},
{"c":55,"s":"철마면 송정리"},
{"c":56,"s":"철마면 웅천리"},
{"c":57,"s":"철마면 연구리"},
{"c":58,"s":"철마면 구칠리"},
{"c":59,"s":"철마면 이곡리"},
{"c":60,"s":"철마면 고촌리"},
{"c":61,"s":"철마면 안평리"},
{"c":62,"s":"철마면 임기리"}]