[{"c":1,"s":"다방동"},
{"c":2,"s":"남부동"},
{"c":3,"s":"중부동"},
{"c":4,"s":"북부동"},
{"c":5,"s":"명곡동"},
{"c":6,"s":"신기동"},
{"c":7,"s":"북정동"},
{"c":8,"s":"산막동"},
{"c":9,"s":"호계동"},
{"c":10,"s":"교동"},
{"c":11,"s":"유산동"},
{"c":12,"s":"어곡동"},
{"c":13,"s":"용당동"},
{"c":14,"s":"삼호동"},
{"c":15,"s":"명동"},
{"c":16,"s":"주남동"},
{"c":17,"s":"소주동"},
{"c":18,"s":"주진동"},
{"c":19,"s":"평산동"},
{"c":20,"s":"덕계동"},
{"c":21,"s":"매곡동"},
{"c":22,"s":"물금읍 물금리"},
{"c":23,"s":"물금읍 증산리"},
{"c":24,"s":"물금읍 가촌리"},
{"c":25,"s":"물금읍 범어리"},
{"c":26,"s":"동면 개곡리"},
{"c":27,"s":"동면 법기리"},
{"c":28,"s":"동면 여락리"},
{"c":29,"s":"동면 사송리"},
{"c":30,"s":"동면 내송리"},
{"c":31,"s":"동면 석산리"},
{"c":32,"s":"동면 금산리"},
{"c":33,"s":"동면 가산리"},
{"c":34,"s":"원동면 원리"},
{"c":35,"s":"원동면 용당리"},
{"c":36,"s":"원동면 내포리"},
{"c":37,"s":"원동면 영포리"},
{"c":38,"s":"원동면 대리"},
{"c":39,"s":"원동면 선리"},
{"c":40,"s":"원동면 서룡리"},
{"c":41,"s":"원동면 화제리"},
{"c":42,"s":"상북면 석계리"},
{"c":43,"s":"상북면 대석리"},
{"c":44,"s":"상북면 소토리"},
{"c":45,"s":"상북면 소석리"},
{"c":46,"s":"상북면 상삼리"},
{"c":47,"s":"상북면 좌삼리"},
{"c":48,"s":"상북면 내석리"},
{"c":49,"s":"상북면 외석리"},
{"c":50,"s":"상북면 신전리"},
{"c":51,"s":"하북면 순지리"},
{"c":52,"s":"하북면 지산리"},
{"c":53,"s":"하북면 초산리"},
{"c":54,"s":"하북면 답곡리"},
{"c":55,"s":"하북면 삼수리"},
{"c":56,"s":"하북면 백록리"},
{"c":57,"s":"하북면 삼감리"},
{"c":58,"s":"하북면 용연리"}]