[{"c":1,"s":"의령읍 서동리"},
{"c":2,"s":"의령읍 중동리"},
{"c":3,"s":"의령읍 동동리"},
{"c":4,"s":"의령읍 무전리"},
{"c":5,"s":"의령읍 정암리"},
{"c":6,"s":"의령읍 만천리"},
{"c":7,"s":"의령읍 대산리"},
{"c":8,"s":"의령읍 상리"},
{"c":9,"s":"의령읍 중리"},
{"c":10,"s":"의령읍 하리"},
{"c":11,"s":"가례면 갑을리"},
{"c":12,"s":"가례면 양성리"},
{"c":13,"s":"가례면 개승리"},
{"c":14,"s":"가례면 괴진리"},
{"c":15,"s":"가례면 수성리"},
{"c":16,"s":"가례면 가례리"},
{"c":17,"s":"가례면 운암리"},
{"c":18,"s":"가례면 대천리"},
{"c":19,"s":"가례면 봉두리"},
{"c":20,"s":"칠곡면 외조리"},
{"c":21,"s":"칠곡면 내조리"},
{"c":22,"s":"칠곡면 신포리"},
{"c":23,"s":"칠곡면 도산리"},
{"c":24,"s":"칠곡면 산남리"},
{"c":25,"s":"칠곡면 산북리"},
{"c":26,"s":"대의면 신전리"},
{"c":27,"s":"대의면 행정리"},
{"c":28,"s":"대의면 중촌리"},
{"c":29,"s":"대의면 하촌리"},
{"c":30,"s":"대의면 다사리"},
{"c":31,"s":"대의면 마쌍리"},
{"c":32,"s":"대의면 추산리"},
{"c":33,"s":"대의면 심지리"},
{"c":34,"s":"대의면 천곡리"},
{"c":35,"s":"화정면 가수리"},
{"c":36,"s":"화정면 덕교리"},
{"c":37,"s":"화정면 석천리"},
{"c":38,"s":"화정면 상정리"},
{"c":39,"s":"화정면 상일리"},
{"c":40,"s":"화정면 상이리"},
{"c":41,"s":"화정면 화양리"},
{"c":42,"s":"용덕면 이목리"},
{"c":43,"s":"용덕면 가미리"},
{"c":44,"s":"용덕면 와요리"},
{"c":45,"s":"용덕면 가락리"},
{"c":46,"s":"용덕면 죽전리"},
{"c":47,"s":"용덕면 신촌리"},
{"c":48,"s":"용덕면 교암리"},
{"c":49,"s":"용덕면 소상리"},
{"c":50,"s":"용덕면 정동리"},
{"c":51,"s":"용덕면 운곡리"},
{"c":52,"s":"용덕면 연리"},
{"c":53,"s":"용덕면 용소리"},
{"c":54,"s":"정곡면 중교리"},
{"c":55,"s":"정곡면 죽전리"},
{"c":56,"s":"정곡면 석곡리"},
{"c":57,"s":"정곡면 오방리"},
{"c":58,"s":"정곡면 상촌리"},
{"c":59,"s":"정곡면 성황리"},
{"c":60,"s":"정곡면 예둔리"},
{"c":61,"s":"정곡면 가현리"},
{"c":62,"s":"정곡면 백곡리"},
{"c":63,"s":"정곡면 적곡리"},
{"c":64,"s":"지정면 봉곡리"},
{"c":65,"s":"지정면 오천리"},
{"c":66,"s":"지정면 두곡리"},
{"c":67,"s":"지정면 성산리"},
{"c":68,"s":"지정면 유곡리"},
{"c":69,"s":"지정면 태부리"},
{"c":70,"s":"지정면 득소리"},
{"c":71,"s":"지정면 백야리"},
{"c":72,"s":"지정면 성당리"},
{"c":73,"s":"지정면 마산리"},
{"c":74,"s":"낙서면 전화리"},
{"c":75,"s":"낙서면 율산리"},
{"c":76,"s":"낙서면 정곡리"},
{"c":77,"s":"낙서면 여의리"},
{"c":78,"s":"낙서면 내제리"},
{"c":79,"s":"낙서면 아근리"},
{"c":80,"s":"부림면 신반리"},
{"c":81,"s":"부림면 막곡리"},
{"c":82,"s":"부림면 입산리"},
{"c":83,"s":"부림면 경산리"},
{"c":84,"s":"부림면 손오리"},
{"c":85,"s":"부림면 단원리"},
{"c":86,"s":"부림면 대곡리"},
{"c":87,"s":"부림면 여배리"},
{"c":88,"s":"부림면 익구리"},
{"c":89,"s":"부림면 감암리"},
{"c":90,"s":"부림면 권혜리"},
{"c":91,"s":"부림면 묵방리"},
{"c":92,"s":"봉수면 청계리"},
{"c":93,"s":"봉수면 서암리"},
{"c":94,"s":"봉수면 신현리"},
{"c":95,"s":"봉수면 죽전리"},
{"c":96,"s":"봉수면 삼가리"},
{"c":97,"s":"봉수면 서득리"},
{"c":98,"s":"봉수면 천락리"},
{"c":99,"s":"궁류면 평촌리"},
{"c":100,"s":"궁류면 벽계리"},
{"c":101,"s":"궁류면 운계리"},
{"c":102,"s":"궁류면 압곡리"},
{"c":103,"s":"궁류면 토곡리"},
{"c":104,"s":"궁류면 계현리"},
{"c":105,"s":"궁류면 다현리"},
{"c":106,"s":"유곡면 상촌리"},
{"c":107,"s":"유곡면 상곡리"},
{"c":108,"s":"유곡면 오목리"},
{"c":109,"s":"유곡면 신촌리"},
{"c":110,"s":"유곡면 송산리"},
{"c":111,"s":"유곡면 마두리"},
{"c":112,"s":"유곡면 칠곡리"},
{"c":113,"s":"유곡면 마장리"},
{"c":114,"s":"유곡면 당동리"},
{"c":115,"s":"유곡면 덕천리"},
{"c":116,"s":"유곡면 세간리"}]