[{"c":1,"s":"남해읍 북변리"},
{"c":2,"s":"남해읍 서변리"},
{"c":3,"s":"남해읍 남변리"},
{"c":4,"s":"남해읍 차산리"},
{"c":5,"s":"남해읍 선소리"},
{"c":6,"s":"남해읍 심천리"},
{"c":7,"s":"남해읍 아산리"},
{"c":8,"s":"남해읍 평현리"},
{"c":9,"s":"남해읍 평리"},
{"c":10,"s":"남해읍 입현리"},
{"c":11,"s":"이동면 다정리"},
{"c":12,"s":"이동면 초음리"},
{"c":13,"s":"이동면 석평리"},
{"c":14,"s":"이동면 무림리"},
{"c":15,"s":"이동면 신전리"},
{"c":16,"s":"이동면 화계리"},
{"c":17,"s":"이동면 용소리"},
{"c":18,"s":"이동면 난음리"},
{"c":19,"s":"상주면 양아리"},
{"c":20,"s":"상주면 상주리"},
{"c":21,"s":"삼동면 영지리"},
{"c":22,"s":"삼동면 지족리"},
{"c":23,"s":"삼동면 금송리"},
{"c":24,"s":"삼동면 동천리"},
{"c":25,"s":"삼동면 봉화리"},
{"c":26,"s":"삼동면 물건리"},
{"c":27,"s":"미조면 송정리"},
{"c":28,"s":"미조면 미조리"},
{"c":29,"s":"남면 당항리"},
{"c":30,"s":"남면 석교리"},
{"c":31,"s":"남면 홍현리"},
{"c":32,"s":"남면 선구리"},
{"c":33,"s":"남면 임포리"},
{"c":34,"s":"남면 평산리"},
{"c":35,"s":"남면 덕월리"},
{"c":36,"s":"남면 상가리"},
{"c":37,"s":"남면 죽전리"},
{"c":38,"s":"서면 연죽리"},
{"c":39,"s":"서면 대정리"},
{"c":40,"s":"서면 서호리"},
{"c":41,"s":"서면 서상리"},
{"c":42,"s":"서면 작장리"},
{"c":43,"s":"서면 남상리"},
{"c":44,"s":"서면 노구리"},
{"c":45,"s":"서면 중현리"},
{"c":46,"s":"서면 정포리"},
{"c":47,"s":"고현면 이어리"},
{"c":48,"s":"고현면 대곡리"},
{"c":49,"s":"고현면 도마리"},
{"c":50,"s":"고현면 오곡리"},
{"c":51,"s":"고현면 포상리"},
{"c":52,"s":"고현면 남치리"},
{"c":53,"s":"고현면 대사리"},
{"c":54,"s":"고현면 차면리"},
{"c":55,"s":"고현면 갈화리"},
{"c":56,"s":"설천면 비란리"},
{"c":57,"s":"설천면 진목리"},
{"c":58,"s":"설천면 문항리"},
{"c":59,"s":"설천면 금음리"},
{"c":60,"s":"설천면 남양리"},
{"c":61,"s":"설천면 문의리"},
{"c":62,"s":"설천면 노량리"},
{"c":63,"s":"설천면 덕신리"},
{"c":64,"s":"창선면 상신리"},
{"c":65,"s":"창선면 동대리"},
{"c":66,"s":"창선면 당항리"},
{"c":67,"s":"창선면 대벽리"},
{"c":68,"s":"창선면 율도리"},
{"c":69,"s":"창선면 서대리"},
{"c":70,"s":"창선면 광천리"},
{"c":71,"s":"창선면 지족리"},
{"c":72,"s":"창선면 옥천리"},
{"c":73,"s":"창선면 당저리"},
{"c":74,"s":"창선면 상죽리"},
{"c":75,"s":"창선면 수산리"},
{"c":76,"s":"창선면 부윤리"},
{"c":77,"s":"창선면 오용리"},
{"c":78,"s":"창선면 가인리"},
{"c":79,"s":"창선면 진동리"}]