[{"c":1,"s":"함양읍 운림리"},
{"c":2,"s":"함양읍 용평리"},
{"c":3,"s":"함양읍 대덕리"},
{"c":4,"s":"함양읍 교산리"},
{"c":5,"s":"함양읍 신천리"},
{"c":6,"s":"함양읍 신관리"},
{"c":7,"s":"함양읍 백천리"},
{"c":8,"s":"함양읍 백연리"},
{"c":9,"s":"함양읍 이은리"},
{"c":10,"s":"함양읍 난평리"},
{"c":11,"s":"함양읍 삼산리"},
{"c":12,"s":"함양읍 죽곡리"},
{"c":13,"s":"함양읍 웅곡리"},
{"c":14,"s":"함양읍 구룡리"},
{"c":15,"s":"함양읍 죽림리"},
{"c":16,"s":"마천면 가흥리"},
{"c":17,"s":"마천면 군자리"},
{"c":18,"s":"마천면 덕전리"},
{"c":19,"s":"마천면 삼정리"},
{"c":20,"s":"마천면 강청리"},
{"c":21,"s":"마천면 추성리"},
{"c":22,"s":"마천면 의탄리"},
{"c":23,"s":"마천면 창원리"},
{"c":24,"s":"마천면 구양리"},
{"c":25,"s":"휴천면 월평리"},
{"c":26,"s":"휴천면 금반리"},
{"c":27,"s":"휴천면 태관리"},
{"c":28,"s":"휴천면 목현리"},
{"c":29,"s":"휴천면 호산리"},
{"c":30,"s":"휴천면 대천리"},
{"c":31,"s":"휴천면 남호리"},
{"c":32,"s":"휴천면 동강리"},
{"c":33,"s":"휴천면 운서리"},
{"c":34,"s":"휴천면 송전리"},
{"c":35,"s":"휴천면 문정리"},
{"c":36,"s":"유림면 손곡리"},
{"c":37,"s":"유림면 유평리"},
{"c":38,"s":"유림면 서주리"},
{"c":39,"s":"유림면 화촌리"},
{"c":40,"s":"유림면 장항리"},
{"c":41,"s":"유림면 국계리"},
{"c":42,"s":"유림면 대궁리"},
{"c":43,"s":"유림면 웅평리"},
{"c":44,"s":"유림면 옥매리"},
{"c":45,"s":"수동면 화산리"},
{"c":46,"s":"수동면 죽산리"},
{"c":47,"s":"수동면 하교리"},
{"c":48,"s":"수동면 도북리"},
{"c":49,"s":"수동면 상백리"},
{"c":50,"s":"수동면 내백리"},
{"c":51,"s":"수동면 우명리"},
{"c":52,"s":"수동면 원평리"},
{"c":53,"s":"지곡면 개평리"},
{"c":54,"s":"지곡면 평촌리"},
{"c":55,"s":"지곡면 덕암리"},
{"c":56,"s":"지곡면 마산리"},
{"c":57,"s":"지곡면 시목리"},
{"c":58,"s":"지곡면 남효리"},
{"c":59,"s":"지곡면 창평리"},
{"c":60,"s":"지곡면 도촌리"},
{"c":61,"s":"지곡면 공배리"},
{"c":62,"s":"지곡면 보산리"},
{"c":63,"s":"안의면 금천리"},
{"c":64,"s":"안의면 당본리"},
{"c":65,"s":"안의면 이전리"},
{"c":66,"s":"안의면 석천리"},
{"c":67,"s":"안의면 황곡리"},
{"c":68,"s":"안의면 도림리"},
{"c":69,"s":"안의면 초동리"},
{"c":70,"s":"안의면 봉산리"},
{"c":71,"s":"안의면 귀곡리"},
{"c":72,"s":"안의면 대대리"},
{"c":73,"s":"안의면 신안리"},
{"c":74,"s":"안의면 하원리"},
{"c":75,"s":"안의면 상원리"},
{"c":76,"s":"안의면 교북리"},
{"c":77,"s":"안의면 월림리"},
{"c":78,"s":"서하면 송계리"},
{"c":79,"s":"서하면 운곡리"},
{"c":80,"s":"서하면 다곡리"},
{"c":81,"s":"서하면 황산리"},
{"c":82,"s":"서하면 봉전리"},
{"c":83,"s":"서상면 대남리"},
{"c":84,"s":"서상면 도천리"},
{"c":85,"s":"서상면 옥산리"},
{"c":86,"s":"서상면 금당리"},
{"c":87,"s":"서상면 중남리"},
{"c":88,"s":"서상면 상남리"},
{"c":89,"s":"백전면 평정리"},
{"c":90,"s":"백전면 양백리"},
{"c":91,"s":"백전면 백운리"},
{"c":92,"s":"백전면 운산리"},
{"c":93,"s":"백전면 대안리"},
{"c":94,"s":"백전면 구산리"},
{"c":95,"s":"백전면 오천리"},
{"c":96,"s":"백전면 경백리"},
{"c":97,"s":"병곡면 옥계리"},
{"c":98,"s":"병곡면 연덕리"},
{"c":99,"s":"병곡면 송평리"},
{"c":100,"s":"병곡면 도천리"},
{"c":101,"s":"병곡면 월암리"},
{"c":102,"s":"병곡면 광평리"},
{"c":103,"s":"병곡면 원산리"}]