[{"c":1,"s":"망경동"},
{"c":2,"s":"주약동"},
{"c":3,"s":"강남동"},
{"c":4,"s":"칠암동"},
{"c":5,"s":"본성동"},
{"c":6,"s":"동성동"},
{"c":7,"s":"남성동"},
{"c":8,"s":"인사동"},
{"c":9,"s":"대안동"},
{"c":10,"s":"평안동"},
{"c":11,"s":"중안동"},
{"c":12,"s":"계동"},
{"c":13,"s":"봉곡동"},
{"c":14,"s":"상봉동"},
{"c":15,"s":"봉래동"},
{"c":16,"s":"수정동"},
{"c":17,"s":"장대동"},
{"c":18,"s":"옥봉동"},
{"c":19,"s":"상대동"},
{"c":20,"s":"하대동"},
{"c":21,"s":"상평동"},
{"c":22,"s":"초전동"},
{"c":23,"s":"장재동"},
{"c":24,"s":"하촌동"},
{"c":25,"s":"신안동"},
{"c":26,"s":"평거동"},
{"c":27,"s":"이현동"},
{"c":28,"s":"유곡동"},
{"c":29,"s":"판문동"},
{"c":30,"s":"귀곡동"},
{"c":31,"s":"가좌동"},
{"c":32,"s":"호탄동"},
{"c":33,"s":"충무공동"},
{"c":34,"s":"문산읍 상문리"},
{"c":35,"s":"문산읍 소문리"},
{"c":36,"s":"문산읍 삼곡리"},
{"c":37,"s":"문산읍 이곡리"},
{"c":38,"s":"문산읍 안전리"},
{"c":39,"s":"문산읍 옥산리"},
{"c":40,"s":"문산읍 갈곡리"},
{"c":41,"s":"문산읍 두산리"},
{"c":42,"s":"내동면 독산리"},
{"c":43,"s":"내동면 신율리"},
{"c":44,"s":"내동면 삼계리"},
{"c":45,"s":"내동면 유수리"},
{"c":46,"s":"내동면 내평리"},
{"c":47,"s":"정촌면 화개리"},
{"c":48,"s":"정촌면 관봉리"},
{"c":49,"s":"정촌면 소곡리"},
{"c":50,"s":"정촌면 예상리"},
{"c":51,"s":"정촌면 예하리"},
{"c":52,"s":"정촌면 대축리"},
{"c":53,"s":"금곡면 검암리"},
{"c":54,"s":"금곡면 가봉리"},
{"c":55,"s":"금곡면 송곡리"},
{"c":56,"s":"금곡면 정자리"},
{"c":57,"s":"금곡면 인담리"},
{"c":58,"s":"금곡면 동례리"},
{"c":59,"s":"금곡면 두문리"},
{"c":60,"s":"금곡면 죽곡리"},
{"c":61,"s":"금곡면 성산리"},
{"c":62,"s":"진성면 상촌리"},
{"c":63,"s":"진성면 대사리"},
{"c":64,"s":"진성면 온수리"},
{"c":65,"s":"진성면 천곡리"},
{"c":66,"s":"진성면 가진리"},
{"c":67,"s":"진성면 구천리"},
{"c":68,"s":"진성면 동산리"},
{"c":69,"s":"일반성면 창촌리"},
{"c":70,"s":"일반성면 가선리"},
{"c":71,"s":"일반성면 개암리"},
{"c":72,"s":"일반성면 답천리"},
{"c":73,"s":"일반성면 운천리"},
{"c":74,"s":"일반성면 남산리"},
{"c":75,"s":"이반성면 장안리"},
{"c":76,"s":"이반성면 평촌리"},
{"c":77,"s":"이반성면 하곡리"},
{"c":78,"s":"이반성면 용암리"},
{"c":79,"s":"이반성면 가산리"},
{"c":80,"s":"이반성면 대천리"},
{"c":81,"s":"이반성면 길성리"},
{"c":82,"s":"이반성면 발산리"},
{"c":83,"s":"사봉면 마성리"},
{"c":84,"s":"사봉면 방촌리"},
{"c":85,"s":"사봉면 무촌리"},
{"c":86,"s":"사봉면 사곡리"},
{"c":87,"s":"사봉면 봉곡리"},
{"c":88,"s":"사봉면 부계리"},
{"c":89,"s":"지수면 청원리"},
{"c":90,"s":"지수면 금곡리"},
{"c":91,"s":"지수면 압사리"},
{"c":92,"s":"지수면 용봉리"},
{"c":93,"s":"지수면 청담리"},
{"c":94,"s":"지수면 승산리"},
{"c":95,"s":"대곡면 설매리"},
{"c":96,"s":"대곡면 광석리"},
{"c":97,"s":"대곡면 유곡리"},
{"c":98,"s":"대곡면 단목리"},
{"c":99,"s":"대곡면 월아리"},
{"c":100,"s":"대곡면 와룡리"},
{"c":101,"s":"대곡면 가정리"},
{"c":102,"s":"대곡면 덕곡리"},
{"c":103,"s":"대곡면 마진리"},
{"c":104,"s":"대곡면 대곡리"},
{"c":105,"s":"대곡면 월암리"},
{"c":106,"s":"대곡면 용암리"},
{"c":107,"s":"금산면 가방리"},
{"c":108,"s":"금산면 용아리"},
{"c":109,"s":"금산면 갈전리"},
{"c":110,"s":"금산면 속사리"},
{"c":111,"s":"금산면 송백리"},
{"c":112,"s":"금산면 중천리"},
{"c":113,"s":"금산면 장사리"},
{"c":114,"s":"집현면 지내리"},
{"c":115,"s":"집현면 봉강리"},
{"c":116,"s":"집현면 사촌리"},
{"c":117,"s":"집현면 대암리"},
{"c":118,"s":"집현면 정평리"},
{"c":119,"s":"집현면 정수리"},
{"c":120,"s":"집현면 냉정리"},
{"c":121,"s":"집현면 장흥리"},
{"c":122,"s":"집현면 신당리"},
{"c":123,"s":"집현면 덕오리"},
{"c":124,"s":"미천면 오방리"},
{"c":125,"s":"미천면 향양리"},
{"c":126,"s":"미천면 반지리"},
{"c":127,"s":"미천면 벌당리"},
{"c":128,"s":"미천면 어옥리"},
{"c":129,"s":"미천면 상미리"},
{"c":130,"s":"미천면 미곡리"},
{"c":131,"s":"미천면 안간리"},
{"c":132,"s":"미천면 효자리"},
{"c":133,"s":"명석면 관지리"},
{"c":134,"s":"명석면 왕지리"},
{"c":135,"s":"명석면 남성리"},
{"c":136,"s":"명석면 덕곡리"},
{"c":137,"s":"명석면 계원리"},
{"c":138,"s":"명석면 신기리"},
{"c":139,"s":"명석면 외율리"},
{"c":140,"s":"명석면 오미리"},
{"c":141,"s":"명석면 가화리"},
{"c":142,"s":"명석면 용산리"},
{"c":143,"s":"명석면 우수리"},
{"c":144,"s":"대평면 대평리"},
{"c":145,"s":"대평면 상촌리"},
{"c":146,"s":"대평면 하촌리"},
{"c":147,"s":"대평면 당촌리"},
{"c":148,"s":"대평면 신풍리"},
{"c":149,"s":"대평면 내촌리"},
{"c":150,"s":"수곡면 자매리"},
{"c":151,"s":"수곡면 사곡리"},
{"c":152,"s":"수곡면 대천리"},
{"c":153,"s":"수곡면 창촌리"},
{"c":154,"s":"수곡면 효자리"},
{"c":155,"s":"수곡면 원내리"},
{"c":156,"s":"수곡면 원외리"},
{"c":157,"s":"수곡면 원계리"}]