[{"c":1,"s":"점촌동"},
{"c":2,"s":"영신동"},
{"c":3,"s":"흥덕동"},
{"c":4,"s":"우지동"},
{"c":5,"s":"창동"},
{"c":6,"s":"신기동"},
{"c":7,"s":"불정동"},
{"c":8,"s":"유곡동"},
{"c":9,"s":"공평동"},
{"c":10,"s":"모전동"},
{"c":11,"s":"윤직동"},
{"c":12,"s":"문경읍 상리"},
{"c":13,"s":"문경읍 하리"},
{"c":14,"s":"문경읍 교촌리"},
{"c":15,"s":"문경읍 요성리"},
{"c":16,"s":"문경읍 지곡리"},
{"c":17,"s":"문경읍 마원리"},
{"c":18,"s":"문경읍 진안리"},
{"c":19,"s":"문경읍 각서리"},
{"c":20,"s":"문경읍 하초리"},
{"c":21,"s":"문경읍 상초리"},
{"c":22,"s":"문경읍 고요리"},
{"c":23,"s":"문경읍 팔영리"},
{"c":24,"s":"문경읍 당포리"},
{"c":25,"s":"문경읍 용연리"},
{"c":26,"s":"문경읍 평천리"},
{"c":27,"s":"문경읍 갈평리"},
{"c":28,"s":"문경읍 중평리"},
{"c":29,"s":"문경읍 관음리"},
{"c":30,"s":"가은읍 왕능리"},
{"c":31,"s":"가은읍 갈전리"},
{"c":32,"s":"가은읍 저음리"},
{"c":33,"s":"가은읍 작천리"},
{"c":34,"s":"가은읍 성저리"},
{"c":35,"s":"가은읍 수예리"},
{"c":36,"s":"가은읍 민지리"},
{"c":37,"s":"가은읍 전곡리"},
{"c":38,"s":"가은읍 성유리"},
{"c":39,"s":"가은읍 죽문리"},
{"c":40,"s":"가은읍 완장리"},
{"c":41,"s":"가은읍 원북리"},
{"c":42,"s":"가은읍 상괴리"},
{"c":43,"s":"가은읍 하괴리"},
{"c":44,"s":"영순면 의곡리"},
{"c":45,"s":"영순면 김용리"},
{"c":46,"s":"영순면 포내리"},
{"c":47,"s":"영순면 사근리"},
{"c":48,"s":"영순면 왕태리"},
{"c":49,"s":"영순면 오룡리"},
{"c":50,"s":"영순면 금림리"},
{"c":51,"s":"영순면 달지리"},
{"c":52,"s":"영순면 이목리"},
{"c":53,"s":"영순면 말응리"},
{"c":54,"s":"영순면 율곡리"},
{"c":55,"s":"산양면 녹문리"},
{"c":56,"s":"산양면 현리"},
{"c":57,"s":"산양면 부암리"},
{"c":58,"s":"산양면 과곡리"},
{"c":59,"s":"산양면 형천리"},
{"c":60,"s":"산양면 위만리"},
{"c":61,"s":"산양면 우본리"},
{"c":62,"s":"산양면 연소리"},
{"c":63,"s":"산양면 불암리"},
{"c":64,"s":"산양면 존도리"},
{"c":65,"s":"산양면 봉정리"},
{"c":66,"s":"산양면 진정리"},
{"c":67,"s":"산양면 반곡리"},
{"c":68,"s":"산양면 평지리"},
{"c":69,"s":"산양면 송죽리"},
{"c":70,"s":"산양면 신전리"},
{"c":71,"s":"호계면 견탄리"},
{"c":72,"s":"호계면 별암리"},
{"c":73,"s":"호계면 호계리"},
{"c":74,"s":"호계면 부곡리"},
{"c":75,"s":"호계면 선암리"},
{"c":76,"s":"호계면 지천리"},
{"c":77,"s":"호계면 가도리"},
{"c":78,"s":"호계면 구산리"},
{"c":79,"s":"호계면 우로리"},
{"c":80,"s":"호계면 막곡리"},
{"c":81,"s":"호계면 봉서리"},
{"c":82,"s":"산북면 서중리"},
{"c":83,"s":"산북면 대상리"},
{"c":84,"s":"산북면 대하리"},
{"c":85,"s":"산북면 이곡리"},
{"c":86,"s":"산북면 우곡리"},
{"c":87,"s":"산북면 석봉리"},
{"c":88,"s":"산북면 김용리"},
{"c":89,"s":"산북면 거산리"},
{"c":90,"s":"산북면 전두리"},
{"c":91,"s":"산북면 호암리"},
{"c":92,"s":"산북면 가좌리"},
{"c":93,"s":"산북면 창구리"},
{"c":94,"s":"산북면 소야리"},
{"c":95,"s":"산북면 종곡리"},
{"c":96,"s":"산북면 내화리"},
{"c":97,"s":"산북면 약석리"},
{"c":98,"s":"산북면 회룡리"},
{"c":99,"s":"산북면 가곡리"},
{"c":100,"s":"산북면 월천리"},
{"c":101,"s":"산북면 지내리"},
{"c":102,"s":"산북면 흑송리"},
{"c":103,"s":"동로면 마광리"},
{"c":104,"s":"동로면 인곡리"},
{"c":105,"s":"동로면 수평리"},
{"c":106,"s":"동로면 간송리"},
{"c":107,"s":"동로면 석항리"},
{"c":108,"s":"동로면 노은리"},
{"c":109,"s":"동로면 적성리"},
{"c":110,"s":"동로면 생달리"},
{"c":111,"s":"동로면 명전리"},
{"c":112,"s":"마성면 모곡리"},
{"c":113,"s":"마성면 정리"},
{"c":114,"s":"마성면 상내리"},
{"c":115,"s":"마성면 하내리"},
{"c":116,"s":"마성면 신현리"},
{"c":117,"s":"마성면 오천리"},
{"c":118,"s":"마성면 외어리"},
{"c":119,"s":"마성면 남호리"},
{"c":120,"s":"농암면 농암리"},
{"c":121,"s":"농암면 종곡리"},
{"c":122,"s":"농암면 연천리"},
{"c":123,"s":"농암면 궁기리"},
{"c":124,"s":"농암면 내서리"},
{"c":125,"s":"농암면 화산리"},
{"c":126,"s":"농암면 율수리"},
{"c":127,"s":"농암면 갈동리"},
{"c":128,"s":"농암면 사현리"},
{"c":129,"s":"농암면 지동리"},
{"c":130,"s":"농암면 선곡리"}]