[{"c":1,"s":"청송읍 월막리"},
{"c":2,"s":"청송읍 덕리"},
{"c":3,"s":"청송읍 금곡리"},
{"c":4,"s":"청송읍 청운리"},
{"c":5,"s":"청송읍 송생리"},
{"c":6,"s":"청송읍 교리"},
{"c":7,"s":"청송읍 거대리"},
{"c":8,"s":"청송읍 월외리"},
{"c":9,"s":"청송읍 부곡리"},
{"c":10,"s":"부동면 상평리"},
{"c":11,"s":"부동면 지리"},
{"c":12,"s":"부동면 하의리"},
{"c":13,"s":"부동면 상의리"},
{"c":14,"s":"부동면 부일리"},
{"c":15,"s":"부동면 신점리"},
{"c":16,"s":"부동면 이전리"},
{"c":17,"s":"부동면 내룡리"},
{"c":18,"s":"부동면 라리"},
{"c":19,"s":"부동면 항리"},
{"c":20,"s":"부남면 감연리"},
{"c":21,"s":"부남면 대전리"},
{"c":22,"s":"부남면 홍원리"},
{"c":23,"s":"부남면 하속리"},
{"c":24,"s":"부남면 구천리"},
{"c":25,"s":"부남면 화장리"},
{"c":26,"s":"부남면 이현리"},
{"c":27,"s":"부남면 중기리"},
{"c":28,"s":"부남면 양숙리"},
{"c":29,"s":"현동면 도평리"},
{"c":30,"s":"현동면 거성리"},
{"c":31,"s":"현동면 눌인리"},
{"c":32,"s":"현동면 월매리"},
{"c":33,"s":"현동면 개일리"},
{"c":34,"s":"현동면 창양리"},
{"c":35,"s":"현동면 인지리"},
{"c":36,"s":"현서면 백자리"},
{"c":37,"s":"현서면 수락리"},
{"c":38,"s":"현서면 무계리"},
{"c":39,"s":"현서면 갈천리"},
{"c":40,"s":"현서면 사촌리"},
{"c":41,"s":"현서면 월정리"},
{"c":42,"s":"현서면 도리"},
{"c":43,"s":"현서면 모계리"},
{"c":44,"s":"현서면 천천리"},
{"c":45,"s":"현서면 구산리"},
{"c":46,"s":"현서면 화목리"},
{"c":47,"s":"현서면 덕계리"},
{"c":48,"s":"현서면 두현리"},
{"c":49,"s":"안덕면 명당리"},
{"c":50,"s":"안덕면 감은리"},
{"c":51,"s":"안덕면 장전리"},
{"c":52,"s":"안덕면 문거리"},
{"c":53,"s":"안덕면 신성리"},
{"c":54,"s":"안덕면 근곡리"},
{"c":55,"s":"안덕면 노래리"},
{"c":56,"s":"안덕면 지소리"},
{"c":57,"s":"안덕면 고와리"},
{"c":58,"s":"안덕면 복리"},
{"c":59,"s":"안덕면 덕성리"},
{"c":60,"s":"안덕면 성재리"},
{"c":61,"s":"파천면 관리"},
{"c":62,"s":"파천면 중평리"},
{"c":63,"s":"파천면 덕천리"},
{"c":64,"s":"파천면 신흥리"},
{"c":65,"s":"파천면 지경리"},
{"c":66,"s":"파천면 병부리"},
{"c":67,"s":"파천면 황목리"},
{"c":68,"s":"파천면 어천리"},
{"c":69,"s":"파천면 송강리"},
{"c":70,"s":"파천면 신기리"},
{"c":71,"s":"파천면 옹점리"},
{"c":72,"s":"진보면 진안리"},
{"c":73,"s":"진보면 이촌리"},
{"c":74,"s":"진보면 후평리"},
{"c":75,"s":"진보면 합강리"},
{"c":76,"s":"진보면 기곡리"},
{"c":77,"s":"진보면 추현리"},
{"c":78,"s":"진보면 부곡리"},
{"c":79,"s":"진보면 세장리"},
{"c":80,"s":"진보면 광덕리"},
{"c":81,"s":"진보면 각산리"},
{"c":82,"s":"진보면 월전리"},
{"c":83,"s":"진보면 시량리"},
{"c":84,"s":"진보면 고현리"},
{"c":85,"s":"진보면 신촌리"},
{"c":86,"s":"진보면 괴정리"}]