[{"c":1,"s":"영주동"},
{"c":2,"s":"상망동"},
{"c":3,"s":"하망동"},
{"c":4,"s":"휴천동"},
{"c":5,"s":"가흥동"},
{"c":6,"s":"문정동"},
{"c":7,"s":"고현동"},
{"c":8,"s":"창진동"},
{"c":9,"s":"상줄동"},
{"c":10,"s":"조와동"},
{"c":11,"s":"조암동"},
{"c":12,"s":"적서동"},
{"c":13,"s":"아지동"},
{"c":14,"s":"풍기읍 성내리"},
{"c":15,"s":"풍기읍 동부리"},
{"c":16,"s":"풍기읍 산법리"},
{"c":17,"s":"풍기읍 미곡리"},
{"c":18,"s":"풍기읍 삼가리"},
{"c":19,"s":"풍기읍 욱금리"},
{"c":20,"s":"풍기읍 금계리"},
{"c":21,"s":"풍기읍 교촌리"},
{"c":22,"s":"풍기읍 서부리"},
{"c":23,"s":"풍기읍 백리"},
{"c":24,"s":"풍기읍 백신리"},
{"c":25,"s":"풍기읍 창락리"},
{"c":26,"s":"풍기읍 수철리"},
{"c":27,"s":"풍기읍 전구리"},
{"c":28,"s":"이산면 원리"},
{"c":29,"s":"이산면 신암리"},
{"c":30,"s":"이산면 지동리"},
{"c":31,"s":"이산면 석포리"},
{"c":32,"s":"이산면 용상리"},
{"c":33,"s":"이산면 신천리"},
{"c":34,"s":"이산면 운문리"},
{"c":35,"s":"이산면 내림리"},
{"c":36,"s":"이산면 두월리"},
{"c":37,"s":"평은면 강동리"},
{"c":38,"s":"평은면 지곡리"},
{"c":39,"s":"평은면 오운리"},
{"c":40,"s":"평은면 천본리"},
{"c":41,"s":"평은면 금광리"},
{"c":42,"s":"평은면 용혈리"},
{"c":43,"s":"평은면 평은리"},
{"c":44,"s":"문수면 승문리"},
{"c":45,"s":"문수면 만방리"},
{"c":46,"s":"문수면 적동리"},
{"c":47,"s":"문수면 권선리"},
{"c":48,"s":"문수면 월호리"},
{"c":49,"s":"문수면 탄산리"},
{"c":50,"s":"문수면 조제리"},
{"c":51,"s":"문수면 수도리"},
{"c":52,"s":"문수면 대양리"},
{"c":53,"s":"장수면 반구리"},
{"c":54,"s":"장수면 두전리"},
{"c":55,"s":"장수면 갈산리"},
{"c":56,"s":"장수면 성곡리"},
{"c":57,"s":"장수면 화기리"},
{"c":58,"s":"장수면 소룡리"},
{"c":59,"s":"장수면 호문리"},
{"c":60,"s":"장수면 파지리"},
{"c":61,"s":"안정면 신전리"},
{"c":62,"s":"안정면 생현리"},
{"c":63,"s":"안정면 봉암리"},
{"c":64,"s":"안정면 용산리"},
{"c":65,"s":"안정면 여륵리"},
{"c":66,"s":"안정면 묵리"},
{"c":67,"s":"안정면 내줄리"},
{"c":68,"s":"안정면 일원리"},
{"c":69,"s":"안정면 안심리"},
{"c":70,"s":"안정면 옹암리"},
{"c":71,"s":"안정면 단촌리"},
{"c":72,"s":"안정면 대평리"},
{"c":73,"s":"안정면 오계리"},
{"c":74,"s":"안정면 동촌리"},
{"c":75,"s":"봉현면 두산리"},
{"c":76,"s":"봉현면 오현리"},
{"c":77,"s":"봉현면 대촌리"},
{"c":78,"s":"봉현면 한천리"},
{"c":79,"s":"봉현면 유전리"},
{"c":80,"s":"봉현면 노좌리"},
{"c":81,"s":"봉현면 하촌리"},
{"c":82,"s":"순흥면 태장리"},
{"c":83,"s":"순흥면 지동리"},
{"c":84,"s":"순흥면 석교리"},
{"c":85,"s":"순흥면 읍내리"},
{"c":86,"s":"순흥면 내죽리"},
{"c":87,"s":"순흥면 청구리"},
{"c":88,"s":"순흥면 배점리"},
{"c":89,"s":"순흥면 덕현리"},
{"c":90,"s":"단산면 동원리"},
{"c":91,"s":"단산면 사천리"},
{"c":92,"s":"단산면 구구리"},
{"c":93,"s":"단산면 병산리"},
{"c":94,"s":"단산면 옥대리"},
{"c":95,"s":"단산면 단곡리"},
{"c":96,"s":"단산면 좌석리"},
{"c":97,"s":"단산면 마락리"},
{"c":98,"s":"부석면 남대리"},
{"c":99,"s":"부석면 북지리"},
{"c":100,"s":"부석면 임곡리"},
{"c":101,"s":"부석면 소천리"},
{"c":102,"s":"부석면 노곡리"},
{"c":103,"s":"부석면 용암리"},
{"c":104,"s":"부석면 우곡리"},
{"c":105,"s":"부석면 상석리"},
{"c":106,"s":"부석면 감곡리"},
{"c":107,"s":"부석면 보계리"}]