[{"c":1,"s":"조교동"},
{"c":2,"s":"망정동"},
{"c":3,"s":"야사동"},
{"c":4,"s":"문내동"},
{"c":5,"s":"문외동"},
{"c":6,"s":"창구동"},
{"c":7,"s":"교촌동"},
{"c":8,"s":"과전동"},
{"c":9,"s":"성내동"},
{"c":10,"s":"화룡동"},
{"c":11,"s":"도동"},
{"c":12,"s":"금노동"},
{"c":13,"s":"완산동"},
{"c":14,"s":"범어동"},
{"c":15,"s":"작산동"},
{"c":16,"s":"봉동"},
{"c":17,"s":"본촌동"},
{"c":18,"s":"채신동"},
{"c":19,"s":"괴연동"},
{"c":20,"s":"대전동"},
{"c":21,"s":"녹전동"},
{"c":22,"s":"도림동"},
{"c":23,"s":"오미동"},
{"c":24,"s":"오수동"},
{"c":25,"s":"쌍계동"},
{"c":26,"s":"도남동"},
{"c":27,"s":"매산동"},
{"c":28,"s":"언하동"},
{"c":29,"s":"신기동"},
{"c":30,"s":"서산동"},
{"c":31,"s":"금호읍 교대리"},
{"c":32,"s":"금호읍 덕성리"},
{"c":33,"s":"금호읍 성천리"},
{"c":34,"s":"금호읍 대미리"},
{"c":35,"s":"금호읍 석섬리"},
{"c":36,"s":"금호읍 원제리"},
{"c":37,"s":"금호읍 냉천리"},
{"c":38,"s":"금호읍 신월리"},
{"c":39,"s":"금호읍 봉죽리"},
{"c":40,"s":"금호읍 관정리"},
{"c":41,"s":"금호읍 구암리"},
{"c":42,"s":"금호읍 약남리"},
{"c":43,"s":"금호읍 대곡리"},
{"c":44,"s":"금호읍 호남리"},
{"c":45,"s":"금호읍 어은리"},
{"c":46,"s":"금호읍 오계리"},
{"c":47,"s":"금호읍 원기리"},
{"c":48,"s":"금호읍 신대리"},
{"c":49,"s":"금호읍 남성리"},
{"c":50,"s":"금호읍 삼호리"},
{"c":51,"s":"금호읍 황정리"},
{"c":52,"s":"청통면 호당리"},
{"c":53,"s":"청통면 우천리"},
{"c":54,"s":"청통면 보성리"},
{"c":55,"s":"청통면 신덕리"},
{"c":56,"s":"청통면 대평리"},
{"c":57,"s":"청통면 죽정리"},
{"c":58,"s":"청통면 송천리"},
{"c":59,"s":"청통면 원촌리"},
{"c":60,"s":"청통면 신학리"},
{"c":61,"s":"청통면 치일리"},
{"c":62,"s":"청통면 애련리"},
{"c":63,"s":"청통면 계포리"},
{"c":64,"s":"청통면 계지리"},
{"c":65,"s":"청통면 신원리"},
{"c":66,"s":"청통면 용천리"},
{"c":67,"s":"신녕면 치산리"},
{"c":68,"s":"신녕면 부산리"},
{"c":69,"s":"신녕면 화서리"},
{"c":70,"s":"신녕면 화남리"},
{"c":71,"s":"신녕면 왕산리"},
{"c":72,"s":"신녕면 매양리"},
{"c":73,"s":"신녕면 화성리"},
{"c":74,"s":"신녕면 완전리"},
{"c":75,"s":"신녕면 신덕리"},
{"c":76,"s":"신녕면 연정리"},
{"c":77,"s":"신녕면 가천리"},
{"c":78,"s":"화산면 연계리"},
{"c":79,"s":"화산면 덕암리"},
{"c":80,"s":"화산면 대안리"},
{"c":81,"s":"화산면 효정리"},
{"c":82,"s":"화산면 당지리"},
{"c":83,"s":"화산면 화산리"},
{"c":84,"s":"화산면 가상리"},
{"c":85,"s":"화산면 대기리"},
{"c":86,"s":"화산면 암기리"},
{"c":87,"s":"화산면 삼부리"},
{"c":88,"s":"화산면 석촌리"},
{"c":89,"s":"화산면 당곡리"},
{"c":90,"s":"화산면 유성리"},
{"c":91,"s":"화산면 부계리"},
{"c":92,"s":"화산면 용평리"},
{"c":93,"s":"화북면 자천리"},
{"c":94,"s":"화북면 옥계리"},
{"c":95,"s":"화북면 입석리"},
{"c":96,"s":"화북면 용소리"},
{"c":97,"s":"화북면 법화리"},
{"c":98,"s":"화북면 하송리"},
{"c":99,"s":"화북면 상송리"},
{"c":100,"s":"화북면 죽전리"},
{"c":101,"s":"화북면 정각리"},
{"c":102,"s":"화북면 횡계리"},
{"c":103,"s":"화북면 공덕리"},
{"c":104,"s":"화북면 오산리"},
{"c":105,"s":"화북면 오동리"},
{"c":106,"s":"화남면 금호리"},
{"c":107,"s":"화남면 죽곡리"},
{"c":108,"s":"화남면 신호리"},
{"c":109,"s":"화남면 사천리"},
{"c":110,"s":"화남면 대천리"},
{"c":111,"s":"화남면 선천리"},
{"c":112,"s":"화남면 삼창리"},
{"c":113,"s":"화남면 귀호리"},
{"c":114,"s":"화남면 안천리"},
{"c":115,"s":"화남면 온천리"},
{"c":116,"s":"화남면 구전리"},
{"c":117,"s":"화남면 용계리"},
{"c":118,"s":"화남면 월곡리"},
{"c":119,"s":"자양면 보현리"},
{"c":120,"s":"자양면 도일리"},
{"c":121,"s":"자양면 충효리"},
{"c":122,"s":"자양면 삼귀리"},
{"c":123,"s":"자양면 용산리"},
{"c":124,"s":"자양면 신방리"},
{"c":125,"s":"자양면 노항리"},
{"c":126,"s":"자양면 성곡리"},
{"c":127,"s":"자양면 용화리"},
{"c":128,"s":"임고면 양항리"},
{"c":129,"s":"임고면 선원리"},
{"c":130,"s":"임고면 덕연리"},
{"c":131,"s":"임고면 삼매리"},
{"c":132,"s":"임고면 평천리"},
{"c":133,"s":"임고면 황강리"},
{"c":134,"s":"임고면 효리"},
{"c":135,"s":"임고면 금대리"},
{"c":136,"s":"임고면 사리"},
{"c":137,"s":"임고면 수성리"},
{"c":138,"s":"임고면 우항리"},
{"c":139,"s":"임고면 고천리"},
{"c":140,"s":"임고면 매호리"},
{"c":141,"s":"임고면 양평리"},
{"c":142,"s":"고경면 단포리"},
{"c":143,"s":"고경면 창하리"},
{"c":144,"s":"고경면 창상리"},
{"c":145,"s":"고경면 대의리"},
{"c":146,"s":"고경면 대성리"},
{"c":147,"s":"고경면 오류리"},
{"c":148,"s":"고경면 고도리"},
{"c":149,"s":"고경면 부리"},
{"c":150,"s":"고경면 용전리"},
{"c":151,"s":"고경면 도암리"},
{"c":152,"s":"고경면 상리리"},
{"c":153,"s":"고경면 학리"},
{"c":154,"s":"고경면 해선리"},
{"c":155,"s":"고경면 전사리"},
{"c":156,"s":"고경면 동도리"},
{"c":157,"s":"고경면 차당리"},
{"c":158,"s":"고경면 삼귀리"},
{"c":159,"s":"고경면 초일리"},
{"c":160,"s":"고경면 상덕리"},
{"c":161,"s":"고경면 가수리"},
{"c":162,"s":"고경면 석계리"},
{"c":163,"s":"고경면 삼산리"},
{"c":164,"s":"고경면 삼포리"},
{"c":165,"s":"고경면 오룡리"},
{"c":166,"s":"고경면 덕암리"},
{"c":167,"s":"고경면 청정리"},
{"c":168,"s":"고경면 파계리"},
{"c":169,"s":"고경면 칠전리"},
{"c":170,"s":"고경면 덕정리"},
{"c":171,"s":"고경면 논실리"},
{"c":172,"s":"북안면 상리"},
{"c":173,"s":"북안면 당리"},
{"c":174,"s":"북안면 북리"},
{"c":175,"s":"북안면 도유리"},
{"c":176,"s":"북안면 명주리"},
{"c":177,"s":"북안면 용계리"},
{"c":178,"s":"북안면 신대리"},
{"c":179,"s":"북안면 신리리"},
{"c":180,"s":"북안면 효리"},
{"c":181,"s":"북안면 도천리"},
{"c":182,"s":"북안면 옥천리"},
{"c":183,"s":"북안면 서당리"},
{"c":184,"s":"북안면 고지리"},
{"c":185,"s":"북안면 임포리"},
{"c":186,"s":"북안면 반계리"},
{"c":187,"s":"북안면 자포리"},
{"c":188,"s":"북안면 신촌리"},
{"c":189,"s":"북안면 관리"},
{"c":190,"s":"북안면 원당리"},
{"c":191,"s":"북안면 내포리"},
{"c":192,"s":"북안면 반정리"},
{"c":193,"s":"북안면 송포리"},
{"c":194,"s":"북안면 유하리"},
{"c":195,"s":"북안면 유상리"},
{"c":196,"s":"대창면 직천리"},
{"c":197,"s":"대창면 운천리"},
{"c":198,"s":"대창면 용전리"},
{"c":199,"s":"대창면 어방리"},
{"c":200,"s":"대창면 오길리"},
{"c":201,"s":"대창면 용호리"},
{"c":202,"s":"대창면 신광리"},
{"c":203,"s":"대창면 조곡리"},
{"c":204,"s":"대창면 대재리"},
{"c":205,"s":"대창면 구지리"},
{"c":206,"s":"대창면 사리리"},
{"c":207,"s":"대창면 대창리"},
{"c":208,"s":"대창면 강회리"},
{"c":209,"s":"대창면 병암리"}]