[{"c":1,"s":"성하동"},
{"c":2,"s":"성동동"},
{"c":3,"s":"인봉동"},
{"c":4,"s":"복룡동"},
{"c":5,"s":"냉림동"},
{"c":6,"s":"서성동"},
{"c":7,"s":"남성동"},
{"c":8,"s":"서문동"},
{"c":9,"s":"무양동"},
{"c":10,"s":"낙양동"},
{"c":11,"s":"개운동"},
{"c":12,"s":"신봉동"},
{"c":13,"s":"가장동"},
{"c":14,"s":"양촌동"},
{"c":15,"s":"지천동"},
{"c":16,"s":"오대동"},
{"c":17,"s":"흥각동"},
{"c":18,"s":"거동동"},
{"c":19,"s":"인평동"},
{"c":20,"s":"서곡동"},
{"c":21,"s":"화개동"},
{"c":22,"s":"외답동"},
{"c":23,"s":"헌신동"},
{"c":24,"s":"병성동"},
{"c":25,"s":"도남동"},
{"c":26,"s":"낙상동"},
{"c":27,"s":"중덕동"},
{"c":28,"s":"초산동"},
{"c":29,"s":"화산동"},
{"c":30,"s":"계산동"},
{"c":31,"s":"부원동"},
{"c":32,"s":"죽전동"},
{"c":33,"s":"만산동"},
{"c":34,"s":"연원동"},
{"c":35,"s":"남장동"},
{"c":36,"s":"남적동"},
{"c":37,"s":"함창읍 구향리"},
{"c":38,"s":"함창읍 오동리"},
{"c":39,"s":"함창읍 오사리"},
{"c":40,"s":"함창읍 증촌리"},
{"c":41,"s":"함창읍 교촌리"},
{"c":42,"s":"함창읍 나한리"},
{"c":43,"s":"함창읍 대조리"},
{"c":44,"s":"함창읍 윤직리"},
{"c":45,"s":"함창읍 덕통리"},
{"c":46,"s":"함창읍 척동리"},
{"c":47,"s":"함창읍 태봉리"},
{"c":48,"s":"함창읍 신흥리"},
{"c":49,"s":"함창읍 신덕리"},
{"c":50,"s":"함창읍 금곡리"},
{"c":51,"s":"함창읍 하갈리"},
{"c":52,"s":"중동면 회상리"},
{"c":53,"s":"중동면 오상리"},
{"c":54,"s":"중동면 죽암리"},
{"c":55,"s":"중동면 간상리"},
{"c":56,"s":"중동면 신암리"},
{"c":57,"s":"중동면 금당리"},
{"c":58,"s":"중동면 우물리"},
{"c":59,"s":"사벌면 덕담리"},
{"c":60,"s":"사벌면 원흥리"},
{"c":61,"s":"사벌면 두릉리"},
{"c":62,"s":"사벌면 목가리"},
{"c":63,"s":"사벌면 덕가리"},
{"c":64,"s":"사벌면 용담리"},
{"c":65,"s":"사벌면 묵상리"},
{"c":66,"s":"사벌면 묵하리"},
{"c":67,"s":"사벌면 매협리"},
{"c":68,"s":"사벌면 매호리"},
{"c":69,"s":"사벌면 퇴강리"},
{"c":70,"s":"사벌면 엄암리"},
{"c":71,"s":"사벌면 금흔리"},
{"c":72,"s":"사벌면 화달리"},
{"c":73,"s":"사벌면 삼덕리"},
{"c":74,"s":"낙동면 상촌리"},
{"c":75,"s":"낙동면 낙동리"},
{"c":76,"s":"낙동면 장곡리"},
{"c":77,"s":"낙동면 구잠리"},
{"c":78,"s":"낙동면 물량리"},
{"c":79,"s":"낙동면 분황리"},
{"c":80,"s":"낙동면 성동리"},
{"c":81,"s":"낙동면 신상리"},
{"c":82,"s":"낙동면 화산리"},
{"c":83,"s":"낙동면 내곡리"},
{"c":84,"s":"낙동면 운평리"},
{"c":85,"s":"낙동면 승곡리"},
{"c":86,"s":"낙동면 비룡리"},
{"c":87,"s":"낙동면 용포리"},
{"c":88,"s":"낙동면 수정리"},
{"c":89,"s":"낙동면 신오리"},
{"c":90,"s":"낙동면 유곡리"},
{"c":91,"s":"청리면 원장리"},
{"c":92,"s":"청리면 월로리"},
{"c":93,"s":"청리면 청하리"},
{"c":94,"s":"청리면 청상리"},
{"c":95,"s":"청리면 마공리"},
{"c":96,"s":"청리면 가천리"},
{"c":97,"s":"청리면 하초리"},
{"c":98,"s":"청리면 수상리"},
{"c":99,"s":"청리면 덕산리"},
{"c":100,"s":"청리면 율리"},
{"c":101,"s":"청리면 삼괴리"},
{"c":102,"s":"청리면 학하리"},
{"c":103,"s":"공성면 옥산리"},
{"c":104,"s":"공성면 금계리"},
{"c":105,"s":"공성면 장동리"},
{"c":106,"s":"공성면 거창리"},
{"c":107,"s":"공성면 영오리"},
{"c":108,"s":"공성면 이화리"},
{"c":109,"s":"공성면 산현리"},
{"c":110,"s":"공성면 평천리"},
{"c":111,"s":"공성면 무곡리"},
{"c":112,"s":"공성면 용안리"},
{"c":113,"s":"공성면 초오리"},
{"c":114,"s":"공성면 인창리"},
{"c":115,"s":"공성면 용신리"},
{"c":116,"s":"공성면 효곡리"},
{"c":117,"s":"공성면 봉산리"},
{"c":118,"s":"공성면 오광리"},
{"c":119,"s":"공성면 우하리"},
{"c":120,"s":"공성면 신곡리"},
{"c":121,"s":"공성면 도곡리"},
{"c":122,"s":"외남면 구서리"},
{"c":123,"s":"외남면 소상리"},
{"c":124,"s":"외남면 신촌리"},
{"c":125,"s":"외남면 송지리"},
{"c":126,"s":"외남면 신상리"},
{"c":127,"s":"외남면 흔평리"},
{"c":128,"s":"외남면 소은리"},
{"c":129,"s":"외남면 지사리"},
{"c":130,"s":"내서면 능암리"},
{"c":131,"s":"내서면 신촌리"},
{"c":132,"s":"내서면 북장리"},
{"c":133,"s":"내서면 고곡리"},
{"c":134,"s":"내서면 서만리"},
{"c":135,"s":"내서면 서원리"},
{"c":136,"s":"내서면 낙서리"},
{"c":137,"s":"내서면 평지리"},
{"c":138,"s":"내서면 노류리"},
{"c":139,"s":"모동면 덕곡리"},
{"c":140,"s":"모동면 이동리"},
{"c":141,"s":"모동면 용호리"},
{"c":142,"s":"모동면 금천리"},
{"c":143,"s":"모동면 신천리"},
{"c":144,"s":"모동면 상판리"},
{"c":145,"s":"모동면 반계리"},
{"c":146,"s":"모동면 정양리"},
{"c":147,"s":"모동면 신흥리"},
{"c":148,"s":"모동면 수봉리"},
{"c":149,"s":"모서면 삼포리"},
{"c":150,"s":"모서면 도안리"},
{"c":151,"s":"모서면 소정리"},
{"c":152,"s":"모서면 대포리"},
{"c":153,"s":"모서면 석산리"},
{"c":154,"s":"모서면 가막리"},
{"c":155,"s":"모서면 지산리"},
{"c":156,"s":"모서면 화현리"},
{"c":157,"s":"모서면 득수리"},
{"c":158,"s":"모서면 백학리"},
{"c":159,"s":"모서면 정산리"},
{"c":160,"s":"모서면 호음리"},
{"c":161,"s":"화동면 이소리"},
{"c":162,"s":"화동면 선교리"},
{"c":163,"s":"화동면 판곡리"},
{"c":164,"s":"화동면 어산리"},
{"c":165,"s":"화동면 신촌리"},
{"c":166,"s":"화동면 반곡리"},
{"c":167,"s":"화동면 보미리"},
{"c":168,"s":"화동면 양지리"},
{"c":169,"s":"화동면 평산리"},
{"c":170,"s":"화서면 신봉리"},
{"c":171,"s":"화서면 상현리"},
{"c":172,"s":"화서면 달천리"},
{"c":173,"s":"화서면 상용리"},
{"c":174,"s":"화서면 금산리"},
{"c":175,"s":"화서면 사산리"},
{"c":176,"s":"화서면 율림리"},
{"c":177,"s":"화서면 봉촌리"},
{"c":178,"s":"화서면 지산리"},
{"c":179,"s":"화서면 상곡리"},
{"c":180,"s":"화서면 하송리"},
{"c":181,"s":"화북면 용유리"},
{"c":182,"s":"화북면 장암리"},
{"c":183,"s":"화북면 상오리"},
{"c":184,"s":"화북면 입석리"},
{"c":185,"s":"화북면 중벌리"},
{"c":186,"s":"화북면 운흥리"},
{"c":187,"s":"외서면 연봉리"},
{"c":188,"s":"외서면 관동리"},
{"c":189,"s":"외서면 개곡리"},
{"c":190,"s":"외서면 이천리"},
{"c":191,"s":"외서면 봉강리"},
{"c":192,"s":"외서면 백전리"},
{"c":193,"s":"외서면 가곡리"},
{"c":194,"s":"외서면 관현리"},
{"c":195,"s":"외서면 우산리"},
{"c":196,"s":"외서면 이촌리"},
{"c":197,"s":"외서면 대전리"},
{"c":198,"s":"외서면 예의리"},
{"c":199,"s":"은척면 봉중리"},
{"c":200,"s":"은척면 봉상리"},
{"c":201,"s":"은척면 우기리"},
{"c":202,"s":"은척면 남곡리"},
{"c":203,"s":"은척면 문암리"},
{"c":204,"s":"은척면 두곡리"},
{"c":205,"s":"은척면 장암리"},
{"c":206,"s":"은척면 무릉리"},
{"c":207,"s":"은척면 황령리"},
{"c":208,"s":"은척면 하흘리"},
{"c":209,"s":"공검면 부곡리"},
{"c":210,"s":"공검면 동막리"},
{"c":211,"s":"공검면 병암리"},
{"c":212,"s":"공검면 오태리"},
{"c":213,"s":"공검면 양정리"},
{"c":214,"s":"공검면 화동리"},
{"c":215,"s":"공검면 역곡리"},
{"c":216,"s":"공검면 율곡리"},
{"c":217,"s":"공검면 예주리"},
{"c":218,"s":"공검면 지평리"},
{"c":219,"s":"공검면 중소리"},
{"c":220,"s":"이안면 양범리"},
{"c":221,"s":"이안면 문창리"},
{"c":222,"s":"이안면 안용리"},
{"c":223,"s":"이안면 구미리"},
{"c":224,"s":"이안면 대현리"},
{"c":225,"s":"이안면 아천리"},
{"c":226,"s":"이안면 지산리"},
{"c":227,"s":"이안면 흑암리"},
{"c":228,"s":"이안면 소암리"},
{"c":229,"s":"이안면 여물리"},
{"c":230,"s":"이안면 가장리"},
{"c":231,"s":"이안면 이안리"},
{"c":232,"s":"화남면 동관리"},
{"c":233,"s":"화남면 평온리"},
{"c":234,"s":"화남면 임곡리"},
{"c":235,"s":"화남면 중눌리"},
{"c":236,"s":"화남면 소곡리"}]