[{"c":1,"s":"정선읍 봉양리"},
{"c":2,"s":"정선읍 북실리"},
{"c":3,"s":"정선읍 덕송리"},
{"c":4,"s":"정선읍 애산리"},
{"c":5,"s":"정선읍 신월리"},
{"c":6,"s":"정선읍 덕우리"},
{"c":7,"s":"정선읍 여탄리"},
{"c":8,"s":"정선읍 회동리"},
{"c":9,"s":"정선읍 용탄리"},
{"c":10,"s":"정선읍 광하리"},
{"c":11,"s":"정선읍 귤암리"},
{"c":12,"s":"정선읍 가수리"},
{"c":13,"s":"고한읍 고한리"},
{"c":14,"s":"사북읍 직전리"},
{"c":15,"s":"사북읍 사북리"},
{"c":16,"s":"신동읍 예미리"},
{"c":17,"s":"신동읍 천포리"},
{"c":18,"s":"신동읍 조동리"},
{"c":19,"s":"신동읍 방제리"},
{"c":20,"s":"신동읍 가사리"},
{"c":21,"s":"신동읍 고성리"},
{"c":22,"s":"신동읍 덕천리"},
{"c":23,"s":"신동읍 운치리"},
{"c":24,"s":"남면 문곡리"},
{"c":25,"s":"남면 무릉리"},
{"c":26,"s":"남면 유평리"},
{"c":27,"s":"남면 낙동리"},
{"c":28,"s":"남면 광덕리"},
{"c":29,"s":"북평면 장열리"},
{"c":30,"s":"북평면 북평리"},
{"c":31,"s":"북평면 남평리"},
{"c":32,"s":"북평면 문곡리"},
{"c":33,"s":"북평면 나전리"},
{"c":34,"s":"북평면 숙암리"},
{"c":35,"s":"임계면 가목리"},
{"c":36,"s":"임계면 도전리"},
{"c":37,"s":"임계면 직원리"},
{"c":38,"s":"임계면 임계리"},
{"c":39,"s":"임계면 송계리"},
{"c":40,"s":"임계면 봉산리"},
{"c":41,"s":"임계면 낙천리"},
{"c":42,"s":"임계면 용산리"},
{"c":43,"s":"임계면 덕암리"},
{"c":44,"s":"임계면 고양리"},
{"c":45,"s":"임계면 반천리"},
{"c":46,"s":"임계면 문래리"},
{"c":47,"s":"화암면 화암리"},
{"c":48,"s":"화암면 석곡리"},
{"c":49,"s":"화암면 북동리"},
{"c":50,"s":"화암면 몰운리"},
{"c":51,"s":"화암면 건천리"},
{"c":52,"s":"화암면 호촌리"},
{"c":53,"s":"화암면 백전리"},
{"c":54,"s":"여량면 여량리"},
{"c":55,"s":"여량면 유천리"},
{"c":56,"s":"여량면 구절리"},
{"c":57,"s":"여량면 남곡리"},
{"c":58,"s":"여량면 고양리"},
{"c":59,"s":"여량면 봉정리"}]