[{"c":1,"s":"홍천읍 진리"},
{"c":2,"s":"홍천읍 신장대리"},
{"c":3,"s":"홍천읍 희망리"},
{"c":4,"s":"홍천읍 갈마곡리"},
{"c":5,"s":"홍천읍 검율리"},
{"c":6,"s":"홍천읍 와동리"},
{"c":7,"s":"홍천읍 결운리"},
{"c":8,"s":"홍천읍 태학리"},
{"c":9,"s":"홍천읍 연봉리"},
{"c":10,"s":"홍천읍 하오안리"},
{"c":11,"s":"홍천읍 장전평리"},
{"c":12,"s":"홍천읍 삼마치리"},
{"c":13,"s":"홍천읍 상오안리"},
{"c":14,"s":"화촌면 송정리"},
{"c":15,"s":"화촌면 내삼포리"},
{"c":16,"s":"화촌면 성산리"},
{"c":17,"s":"화촌면 야시대리"},
{"c":18,"s":"화촌면 주음치리"},
{"c":19,"s":"화촌면 군업리"},
{"c":20,"s":"화촌면 장평리"},
{"c":21,"s":"화촌면 굴운리"},
{"c":22,"s":"화촌면 구성포리"},
{"c":23,"s":"화촌면 풍천리"},
{"c":24,"s":"화촌면 외삼포리"},
{"c":25,"s":"두촌면 철정리"},
{"c":26,"s":"두촌면 역내리"},
{"c":27,"s":"두촌면 천현리"},
{"c":28,"s":"두촌면 자은리"},
{"c":29,"s":"두촌면 원동리"},
{"c":30,"s":"두촌면 장남리"},
{"c":31,"s":"두촌면 괘석리"},
{"c":32,"s":"내촌면 물걸리"},
{"c":33,"s":"내촌면 와야리"},
{"c":34,"s":"내촌면 서곡리"},
{"c":35,"s":"내촌면 도관리"},
{"c":36,"s":"내촌면 답풍리"},
{"c":37,"s":"내촌면 화상대리"},
{"c":38,"s":"내촌면 문현리"},
{"c":39,"s":"내촌면 광암리"},
{"c":40,"s":"서석면 풍암리"},
{"c":41,"s":"서석면 검산리"},
{"c":42,"s":"서석면 생곡리"},
{"c":43,"s":"서석면 상군두리"},
{"c":44,"s":"서석면 하군두리"},
{"c":45,"s":"서석면 청량리"},
{"c":46,"s":"서석면 어론리"},
{"c":47,"s":"서석면 수하리"},
{"c":48,"s":"동면 속초리"},
{"c":49,"s":"동면 신봉리"},
{"c":50,"s":"동면 덕치리"},
{"c":51,"s":"동면 성수리"},
{"c":52,"s":"동면 삼현리"},
{"c":53,"s":"동면 방량리"},
{"c":54,"s":"동면 월운리"},
{"c":55,"s":"동면 후동리"},
{"c":56,"s":"동면 개운리"},
{"c":57,"s":"동면 노천리"},
{"c":58,"s":"동면 좌운리"},
{"c":59,"s":"남면 양덕원리"},
{"c":60,"s":"남면 유목정리"},
{"c":61,"s":"남면 신대리"},
{"c":62,"s":"남면 시동리"},
{"c":63,"s":"남면 유치리"},
{"c":64,"s":"남면 월천리"},
{"c":65,"s":"남면 명동리"},
{"c":66,"s":"남면 제곡리"},
{"c":67,"s":"남면 용수리"},
{"c":68,"s":"남면 남노일리"},
{"c":69,"s":"남면 화전리"},
{"c":70,"s":"서면 반곡리"},
{"c":71,"s":"서면 어유포리"},
{"c":72,"s":"서면 팔봉리"},
{"c":73,"s":"서면 굴업리"},
{"c":74,"s":"서면 대곡리"},
{"c":75,"s":"서면 중방대리"},
{"c":76,"s":"서면 길곡리"},
{"c":77,"s":"서면 동막리"},
{"c":78,"s":"서면 모곡리"},
{"c":79,"s":"서면 마곡리"},
{"c":80,"s":"서면 개야리"},
{"c":81,"s":"서면 두미리"},
{"c":82,"s":"북방면 상화계리"},
{"c":83,"s":"북방면 화동리"},
{"c":84,"s":"북방면 중화계리"},
{"c":85,"s":"북방면 성동리"},
{"c":86,"s":"북방면 북방리"},
{"c":87,"s":"북방면 능평리"},
{"c":88,"s":"북방면 부사원리"},
{"c":89,"s":"북방면 본궁리"},
{"c":90,"s":"북방면 역전평리"},
{"c":91,"s":"북방면 원소리"},
{"c":92,"s":"북방면 구만리"},
{"c":93,"s":"북방면 노일리"},
{"c":94,"s":"북방면 장항리"},
{"c":95,"s":"북방면 굴지리"},
{"c":96,"s":"북방면 도사곡리"},
{"c":97,"s":"북방면 소매곡리"},
{"c":98,"s":"북방면 하화계리"},
{"c":99,"s":"북방면 전치곡리"},
{"c":100,"s":"내면 창촌리"},
{"c":101,"s":"내면 광원리"},
{"c":102,"s":"내면 명개리"},
{"c":103,"s":"내면 율전리"},
{"c":104,"s":"내면 자운리"},
{"c":105,"s":"내면 방내리"}]